V2/processor.vcd
$date
	Wed Apr 09 22:27:35 2014
$end
$version
	Icarus Verilog
$end
$timescale
	1ns
$end
$scope module processor_tb $end
$scope module CPU $end
$var wire 32 ! ALUSrc_out [31:0] $end
$var wire 2 " ALU_op [1:0] $end
$var wire 32 # ALU_out [31:0] $end
$var wire 4 $ ALUctrl_op [3:0] $end
$var wire 1 % ALUsrc_sel $end
$var wire 1 & MemWrite_sel $end
$var wire 1 ' MemtoReg_sel $end
$var wire 1 ( RegWrite_sel $end
$var wire 1 ) branch_ctl $end
$var wire 1 * branch_sel $end
$var wire 1 + clk $end
$var wire 32 , cycles [31:0] $end
$var wire 6 - func_code [5:0] $end
$var wire 16 . imm [15:0] $end
$var wire 32 / immExtended [31:0] $end
$var wire 32 0 inPC [31:0] $end
$var wire 32 1 instruction [31:0] $end
$var wire 32 2 instructions [31:0] $end
$var wire 1 3 jump_sel $end
$var wire 1 4 memRead_sel $end
$var wire 32 5 memory_out [31:0] $end
$var wire 6 6 opcode [5:0] $end
$var wire 32 7 outPC [31:0] $end
$var wire 32 8 outPCadd [31:0] $end
$var wire 32 9 outPCbranch [31:0] $end
$var wire 32 : outPCjump [31:0] $end
$var wire 32 ; pcTemp [31:0] $end
$var wire 5 < rAddrA [4:0] $end
$var wire 5 = rAddrB [4:0] $end
$var wire 32 > rDataA [31:0] $end
$var wire 32 ? rDataB [31:0] $end
$var wire 1 @ regDst_sel $end
$var wire 1 A rst $end
$var wire 5 B wAddr [4:0] $end
$var wire 5 C wAddrMux [4:0] $end
$var wire 32 D wData [31:0] $end
$var wire 1 E zero $end
$scope module PC $end
$var wire 1 + clk $end
$var wire 32 F inPC [31:0] $end
$var wire 1 A rst $end
$var reg 32 G outPC [31:0] $end
$upscope $end
$scope module nextPC $end
$var wire 32 H inA [31:0] $end
$var reg 32 I outA [31:0] $end
$upscope $end
$scope module branchPC $end
$var wire 32 J inPC [31:0] $end
$var wire 32 K instruction [31:0] $end
$var wire 32 L tempExt [31:0] $end
$var reg 32 M branchAddr [31:0] $end
$var reg 16 N temp1 [15:0] $end
$var reg 32 O temp2 [31:0] $end
$scope module bTemp $end
$var wire 16 P extend [15:0] $end
$var reg 32 Q extended [31:0] $end
$upscope $end
$upscope $end
$scope module jumpPC $end
$var wire 32 R instruction [31:0] $end
$var reg 32 S jumpAddr [31:0] $end
$upscope $end
$scope module branchCtl_2mux $end
$var wire 1 * branch_sel $end
$var wire 1 E zero $end
$var reg 1 T branch $end
$upscope $end
$scope module pcMux1 $end
$var wire 32 U inA [31:0] $end
$var wire 32 V inB [31:0] $end
$var wire 1 ) sel $end
$var reg 32 W out [31:0] $end
$upscope $end
$scope module pcMux2 $end
$var wire 32 X inA [31:0] $end
$var wire 32 Y inB [31:0] $end
$var wire 1 3 sel $end
$var reg 32 Z out [31:0] $end
$upscope $end
$scope module control_logic $end
$var wire 6 [ opcode [5:0] $end
$var reg 2 \ aluop [1:0] $end
$var reg 1 ] alusrc $end
$var reg 1 ^ branch $end
$var reg 1 _ jump $end
$var reg 1 ` memread $end
$var reg 1 a memtoreg $end
$var reg 1 b memwrite $end
$var reg 1 c regdest $end
$var reg 1 d regwrite $end
$upscope $end
$scope module writeMux $end
$var wire 5 e inA [4:0] $end
$var wire 5 f inB [4:0] $end
$var wire 1 @ sel $end
$var reg 5 g out [4:0] $end
$upscope $end
$scope module immediate $end
$var wire 16 h extend [15:0] $end
$var reg 32 i extended [31:0] $end
$upscope $end
$scope module ALUSrc $end
$var wire 32 j inA [31:0] $end
$var wire 32 k inB [31:0] $end
$var wire 1 % sel $end
$var reg 32 l out [31:0] $end
$upscope $end
$scope module ALUctrl $end
$var wire 2 m aluop [1:0] $end
$var wire 6 n funct [5:0] $end
$var reg 4 o operation [3:0] $end
$upscope $end
$scope module register $end
$var wire 1 + clk $end
$var wire 5 p readReg1 [4:0] $end
$var wire 5 q readReg2 [4:0] $end
$var wire 1 ( regWrite $end
$var wire 1 A rst $end
$var wire 32 r writeData [31:0] $end
$var wire 5 s writeReg [4:0] $end
$var reg 32 t readData1 [31:0] $end
$var reg 32 u readData2 [31:0] $end
$upscope $end
$scope module ALU_unit $end
$var wire 32 v data_a [31:0] $end
$var wire 32 w data_b [31:0] $end
$var wire 4 x operation [3:0] $end
$var wire 1 E zero $end
$var reg 32 y aluresult [31:0] $end
$upscope $end
$scope module memory_unit $end
$var wire 32 z data_addr [32:1] $end
$var wire 32 { data_in [31:0] $end
$var wire 32 | data_out [31:0] $end
$var wire 32 } inst_addr [32:1] $end
$var wire 32 ~ instr [31:0] $end
$var wire 1 4 mem_read $end
$var wire 1 !" mem_read1 $end
$var wire 1 & mem_write $end
$var reg 32 "" data_addr_reg [31:0] $end
$var integer 32 #" file [31:0] $end
$var integer 32 $" i [31:0] $end
$var reg 32 %" inst_addr_reg [31:0] $end
$var integer 32 &" r [31:0] $end
$var reg 96 '" rest [96:1] $end
$scope begin file_block $end
$upscope $end
$upscope $end
$scope module memtoReg_mux $end
$var wire 32 (" inA [31:0] $end
$var wire 32 )" inB [31:0] $end
$var wire 1 ' sel $end
$var reg 32 *" out [31:0] $end
$upscope $end
$upscope $end
$upscope $end
$enddefinitions $end
#0
$dumpvars
b0 *"
b0x )"
b0 ("
b101010 '"
b10000 &"
b1000010000000 %"
b1001 $"
b10000000000000000000000000000011 #"
b1010000 ""
x!"
b100000000110000000000000000000 ~
b1000000000000 }
b0x |
b0 {
b0 z
b0 y
b10 x
b0 w
b0 v
b0 u
b0 t
b11000 s
b0 r
b11000 q
b0 p
b10 o
b0 n
b0 m
b0 l
b0 k
b0 j
b0 i
b0 h
b11000 g
b0 f
b11000 e
1d
0c
0b
0a
0`
0_
0^
1]
b0 \
b1000 [
b1000000000100 Z
b11000000000000000000000 Y
b1000000000100 X
b1000000000100 W
b1000000000100 V
b1000000000100 U
0T
b11000000000000000000000 S
b100000000110000000000000000000 R
b0 Q
b0 P
b0 O
b0 N
b1000000000100 M
b0 L
b100000000110000000000000000000 K
b1000000000100 J
b1000000000100 I
b1000000000000 H
b1000000000000 G
b1000000000100 F
1E
b0 D
b11000 C
b0 B
1A
0@
b0 ?
b0 >
b11000 =
b0 <
b1000000000100 ;
b11000000000000000000000 :
b1000000000100 9
b1000000000100 8
b1000000000000 7
b1000 6
b0x 5
04
03
b0 2
b100000000110000000000000000000 1
b1000000000100 0
b0 /
b0 .
b0 -
b0 ,
0+
0*
0)
1(
0'
0&
1%
b10 $
b0 #
b0 "
b0 !
$end
#1
b0 5
b0 |
b0 )"
0!"
#10
b100100 *"
b100100 D
b100100 r
b100100 y
0E
b100100 #
b100100 z
b100100 ("
b10010000 O
b1000000001000 Z
b1000000001000 0
b1000000001000 F
b100100 l
b100100 !
b100100 w
b100100 Q
b100100 L
b1000000001000 W
b1000000001000 ;
b1000000001000 X
b1000010011000 M
b1000010011000 9
b1000010011000 V
b11001 g
b11001 C
b11001 s
b100100 i
b100100 /
b100100 k
b11001000000000010010000 S
b11001000000000010010000 :
b11001000000000010010000 Y
b100100 N
b100100 P
b1000000001000 I
b1000000001000 8
b1000000001000 J
b1000000001000 U
b11001 =
b11001 e
b11001 q
b100100 -
b100100 n
b100100 .
b100100 h
b1000000000100 G
b100000000110010000000000100100 1
b100000000110010000000000100100 K
b100000000110010000000000100100 R
b100000000110010000000000100100 ~
b1000000000100 7
b1000000000100 H
b1000000000100 }
b1 2
b1 ,
1+
0A
#20
0+
#30
b0 y
1E
b0 #
b0 z
b0 ("
b0 O
b1000000001100 Z
b1000000001100 0
b1000000001100 F
b0 *"
b0 D
b0 r
b0 l
b0 !
b0 w
b0 Q
b0 L
b1000000001100 W
b1000000001100 ;
b1000000001100 X
b1000000001100 M
b1000000001100 9
b1000000001100 V
1`
14
1a
1'
1]
1%
1d
1(
b10 g
b10 C
b10 s
b0 i
b0 /
b0 k
b1100000010000000000000000000 S
b1100000010000000000000000000 :
b1100000010000000000000000000 Y
b0 N
b0 P
b1000000001100 I
b1000000001100 8
b1000000001100 J
b1000000001100 U
b11000 <
b11000 p
b100011 6
b100011 [
b10 =
b10 e
b10 q
b0 -
b0 n
b0 .
b0 h
b1000000001000 G
b10001111000000100000000000000000 1
b10001111000000100000000000000000 K
b10001111000000100000000000000000 R
b10001111000000100000000000000000 ~
b1000000001000 7
b1000000001000 H
b1000000001000 }
b10 2
b10 ,
1+
#31
b1 *"
b1 D
b1 r
b1 5
b1 |
b1 )"
1!"
#40
0+
#50
b10 *"
b10 D
b10 r
b10 5
b10 |
b10 )"
b100100 y
0E
b100100 #
b100100 z
b100100 ("
b10010000 O
b1000000010000 Z
b1000000010000 0
b1000000010000 F
b100100 l
b100100 !
b100100 w
b100100 Q
b100100 L
b1000000010000 W
b1000000010000 ;
b1000000010000 X
b1000010100000 M
b1000010100000 9
b1000010100000 V
b11 g
b11 C
b11 s
b100100 i
b100100 /
b100100 k
b1100000011000000000010010000 S
b1100000011000000000010010000 :
b1100000011000000000010010000 Y
b100100 N
b100100 P
b1000000010000 I
b1000000010000 8
b1000000010000 J
b1000000010000 U
b11 =
b11 e
b11 q
b100100 -
b100100 n
b100100 .
b100100 h
b1000000001100 G
b10001111000000110000000000100100 1
b10001111000000110000000000100100 K
b10001111000000110000000000100100 R
b10001111000000110000000000100100 ~
b1000000001100 7
b1000000001100 H
b1000000001100 }
b11 2
b11 ,
1+
#60
0+
#70
b10000000010000000 O
b1000000010100 Z
b1000000010100 0
b1000000010100 F
b1000000000 5
b1000000000 |
b1000000000 )"
b1000 g
b1000 C
b1000 s
b11 *"
b11 D
b11 r
b11 y
b11 #
b11 z
b11 ("
b10 l
b10 !
b10 w
b100000000100000 Q
b100000000100000 L
b1000000010100 W
b1000000010100 ;
b1000000010100 X
b10001000010010100 M
b10001000010010100 9
b10001000010010100 V
b10 \
b10 "
b10 m
1c
1@
0]
0%
0a
0'
1d
1(
0`
04
b10 u
b10 ?
b10 j
b10 {
b1 t
b1 >
b1 v
b100000000100000 i
b100000000100000 /
b100000000100000 k
b1000011010000000010000000 S
b1000011010000000010000000 :
b1000011010000000010000000 Y
b100000000100000 N
b100000000100000 P
b1000000010100 I
b1000000010100 8
b1000000010100 J
b1000000010100 U
b0 6
b0 [
b10 <
b10 p
b1000 B
b1000 f
b100000 -
b100000 n
b100000000100000 .
b100000000100000 h
b1000000010000 G
b10000110100000000100000 1
b10000110100000000100000 K
b10000110100000000100000 R
b10000110100000000100000 ~
b1000000010000 7
b1000000010000 H
b1000000010000 }
b100 2
b100 ,
1+
#71
b0 5
b0 |
b0 )"
0!"
#80
0+
#90
b1001000 *"
b1001000 D
b1001000 r
b100100000 O
b1000000011000 Z
b1000000011000 0
b1000000011000 F
b1001000 y
b1001000 #
b1001000 z
b1001000 ("
b1001000 l
b1001000 !
b1001000 w
b1001000 Q
b1001000 L
b1000000011000 W
b1000000011000 ;
b1000000011000 X
b1000100111000 M
b1000100111000 9
b1000100111000 V
1b
1&
1]
1%
0c
0@
0d
0(
b0 \
b0 "
b0 m
b11 u
b11 ?
b11 j
b11 {
b0 t
b0 >
b0 v
b1000 g
b1000 C
b1000 s
b1001000 i
b1001000 /
b1001000 k
b1100001000000000000100100000 S
b1100001000000000000100100000 :
b1100001000000000000100100000 Y
b1001000 N
b1001000 P
b1000000011000 I
b1000000011000 8
b1000000011000 J
b1000000011000 U
b101011 6
b101011 [
b1000 =
b1000 e
b1000 q
b11000 <
b11000 p
b0 B
b0 f
b1000 -
b1000 n
b1001000 .
b1001000 h
b1000000010100 G
b10101111000010000000000001001000 1
b10101111000010000000000001001000 K
b10101111000010000000000001001000 R
b10101111000010000000000001001000 ~
b1000000010100 7
b1000000010100 H
b1000000010100 }
b101 2
b101 ,
1+
#100
0+
#110
b100 *"
b100 D
b100 r
b100 y
b100 #
b100 z
b100 ("
b10000 O
b1000000011100 Z
b1000000011100 0
b1000000011100 F
b100 l
b100 !
b100 w
b100 Q
b100 L
b1000000011100 W
b1000000011100 ;
b1000000011100 X
b1000000101100 M
b1000000101100 9
b1000000101100 V
1d
1(
1]
1%
0b
0&
b0 u
b0 ?
b0 j
b0 {
b11000 g
b11000 C
b11000 s
b100 i
b100 /
b100 k
b1100011000000000000000010000 S
b1100011000000000000000010000 :
b1100011000000000000000010000 Y
b100 N
b100 P
b1000000011100 I
b1000000011100 8
b1000000011100 J
b1000000011100 U
b1000 6
b1000 [
b11000 =
b11000 e
b11000 q
b100 -
b100 n
b100 .
b100 h
b1000000011000 G
b100011000110000000000000000100 1
b100011000110000000000000000100 K
b100011000110000000000000000100 R
b100011000110000000000000000100 ~
b1000000011000 7
b1000000011000 H
b1000000011000 }
b110 2
b110 ,
1+
#120
0+
#130
b0 *"
b0 D
b0 r
b0 y
1E
b0 #
b0 z
b0 ("
b11110000010000000 O
b1000000100000 Z
b1000000100000 0
b1000000100000 F
b0 l
b0 !
b0 w
b111100000100000 Q
b111100000100000 L
b1000000100000 W
b1000000100000 ;
b1000000100000 X
b11111000010100000 M
b11111000010100000 9
b11111000010100000 V
b10 \
b10 "
b10 m
1c
1@
0]
0%
1d
1(
b1111 g
b1111 C
b1111 s
b111100000100000 i
b111100000100000 /
b111100000100000 k
b11110000010000000 S
b11110000010000000 :
b11110000010000000 Y
b111100000100000 N
b111100000100000 P
b1000000100000 I
b1000000100000 8
b1000000100000 J
b1000000100000 U
b0 <
b0 p
b0 6
b0 [
b0 =
b0 e
b0 q
b1111 B
b1111 f
b100000 -
b100000 n
b111100000100000 .
b111100000100000 h
b1000000011100 G
b111100000100000 1
b111100000100000 K
b111100000100000 R
b111100000100000 ~
b1000000011100 7
b1000000011100 H
b1000000011100 }
b111 2
b111 ,
1+
#140
0+
#150
b1000000100100 Z
b1000000100100 0
b1000000100100 F
b1000000100100 W
b1000000100100 ;
b1000000100100 X
b11111000010100100 M
b11111000010100100 9
b11111000010100100 V
b1000000100100 I
b1000000100100 8
b1000000100100 J
b1000000100100 U
b1000000100000 G
b1000000100000 7
b1000000100000 H
b1000000100000 }
b1000 2
b1000 ,
1+
#160
0+
#170
b100000 *"
b100000 D
b100000 r
b100 O
b1000000101000 Z
b1000000101000 0
b1000000101000 F
0T
0)
b110 o
b110 $
b110 x
b100000 y
0E
b100000 #
b100000 z
b100000 ("
b100 l
b100 !
b100 w
b1 Q
b1 L
b1000000101000 W
b1000000101000 ;
b1000000101000 X
b1000000101100 M
b1000000101100 9
b1000000101100 V
1^
1*
0c
0@
0d
0(
b1 \
b1 "
b1 m
b100 u
b100 ?
b100 j
b100 {
b100100 t
b100100 >
b100100 v
b11000 g
b11000 C
b11000 s
b1 i
b1 /
b1 k
b1100111000000000000000000100 S
b1100111000000000000000000100 :
b1100111000000000000000000100 Y
b1 N
b1 P
b1000000101000 I
b1000000101000 8
b1000000101000 J
b1000000101000 U
b100 6
b100 [
b11000 =
b11000 e
b11000 q
b11001 <
b11001 p
b0 B
b0 f
b1 -
b1 n
b1 .
b1 h
b1000000100100 G
b10011001110000000000000000001 1
b10011001110000000000000000001 K
b10011001110000000000000000001 R
b10011001110000000000000000001 ~
b1000000100100 7
b1000000100100 H
b1000000100100 }
b1001 2
b1001 ,
1+
#180
0+
#190
b0 *"
b0 D
b0 r
1E
b1000000001000 O
b10 o
b10 $
b10 x
b0 y
b0 #
b0 z
b0 ("
b0 l
b0 !
b0 w
b1000000001000 Z
b1000000001000 0
b1000000001000 F
b10000000010 Q
b10000000010 L
b1000000101100 W
b1000000101100 ;
b1000000101100 X
b10000000110100 M
b10000000110100 9
b10000000110100 V
1_
13
0^
0*
b0 \
b0 "
b0 m
b0 g
b0 C
b0 s
b0 u
b0 ?
b0 j
b0 {
b0 t
b0 >
b0 v
b10000000010 i
b10000000010 /
b10000000010 k
b1000000001000 S
b1000000001000 :
b1000000001000 Y
b10000000010 N
b10000000010 P
b1000000101100 I
b1000000101100 8
b1000000101100 J
b1000000101100 U
b10 6
b10 [
b0 =
b0 e
b0 q
b0 <
b0 p
b10 -
b10 n
b10000000010 .
b10000000010 h
b1000000101000 G
b1000000000000000010000000010 1
b1000000000000000010000000010 K
b1000000000000000010000000010 R
b1000000000000000010000000010 ~
b1000000101000 7
b1000000101000 H
b1000000101000 }
b1010 2
b1010 ,
1+
#200
0+
#210
b0 O
b100 y
0E
b100 #
b100 z
b100 ("
b1000000001100 Z
b1000000001100 0
b1000000001100 F
b0 Q
b0 L
b1000000001100 W
b1000000001100 ;
b1000000001100 X
b1000000001100 M
b1000000001100 9
b1000000001100 V
1`
14
1d
1(
1a
1'
1]
1%
0_
03
b1 u
b1 ?
b1 j
b1 {
b100 t
b100 >
b100 v
b10 g
b10 C
b10 s
b0 i
b0 /
b0 k
b1100000010000000000000000000 S
b1100000010000000000000000000 :
b1100000010000000000000000000 Y
b0 N
b0 P
b1000000001100 I
b1000000001100 8
b1000000001100 J
b1000000001100 U
b11000 <
b11000 p
b100011 6
b100011 [
b10 =
b10 e
b10 q
b0 -
b0 n
b0 .
b0 h
b1000000001000 G
b10001111000000100000000000000000 1
b10001111000000100000000000000000 K
b10001111000000100000000000000000 R
b10001111000000100000000000000000 ~
b1000000001000 7
b1000000001000 H
b1000000001000 }
b1011 2
b1011 ,
1+
#211
b10 *"
b10 D
b10 r
b10 5
b10 |
b10 )"
1!"
#220
0+
#230
b100 *"
b100 D
b100 r
b100 5
b100 |
b100 )"
b101000 y
b101000 #
b101000 z
b101000 ("
b10010000 O
b1000000010000 Z
b1000000010000 0
b1000000010000 F
b100100 l
b100100 !
b100100 w
b100100 Q
b100100 L
b1000000010000 W
b1000000010000 ;
b1000000010000 X
b1000010100000 M
b1000010100000 9
b1000010100000 V
b10 u
b10 ?
b10 j
b10 {
b11 g
b11 C
b11 s
b100100 i
b100100 /
b100100 k
b1100000011000000000010010000 S
b1100000011000000000010010000 :
b1100000011000000000010010000 Y
b100100 N
b100100 P
b1000000010000 I
b1000000010000 8
b1000000010000 J
b1000000010000 U
b11 =
b11 e
b11 q
b100100 -
b100100 n
b100100 .
b100100 h
b1000000001100 G
b10001111000000110000000000100100 1
b10001111000000110000000000100100 K
b10001111000000110000000000100100 R
b10001111000000110000000000100100 ~
b1000000001100 7
b1000000001100 H
b1000000001100 }
b1100 2
b1100 ,
1+
#240
0+
#250
b10000000010000000 O
b1000000010100 Z
b1000000010100 0
b1000000010100 F
b110000000000000000 5
b110000000000000000 |
b110000000000000000 )"
b1000 g
b1000 C
b1000 s
b110 *"
b110 D
b110 r
b110 y
b110 #
b110 z
b110 ("
b100 l
b100 !
b100 w
b100000000100000 Q
b100000000100000 L
b1000000010100 W
b1000000010100 ;
b1000000010100 X
b10001000010010100 M
b10001000010010100 9
b10001000010010100 V
b10 \
b10 "
b10 m
1c
1@
0]
0%
0a
0'
1d
1(
0`
04
b100 u
b100 ?
b100 j
b100 {
b10 t
b10 >
b10 v
b100000000100000 i
b100000000100000 /
b100000000100000 k
b1000011010000000010000000 S
b1000011010000000010000000 :
b1000011010000000010000000 Y
b100000000100000 N
b100000000100000 P
b1000000010100 I
b1000000010100 8
b1000000010100 J
b1000000010100 U
b0 6
b0 [
b10 <
b10 p
b1000 B
b1000 f
b100000 -
b100000 n
b100000000100000 .
b100000000100000 h
b1000000010000 G
b10000110100000000100000 1
b10000110100000000100000 K
b10000110100000000100000 R
b10000110100000000100000 ~
b1000000010000 7
b1000000010000 H
b1000000010000 }
b1101 2
b1101 ,
1+
#251
b0 5
b0 |
b0 )"
0!"
#260
0+
#270
b1001100 *"
b1001100 D
b1001100 r
b100100000 O
b1000000011000 Z
b1000000011000 0
b1000000011000 F
b1001100 y
b1001100 #
b1001100 z
b1001100 ("
b1001000 l
b1001000 !
b1001000 w
b1001000 Q
b1001000 L
b1000000011000 W
b1000000011000 ;
b1000000011000 X
b1000100111000 M
b1000100111000 9
b1000100111000 V
1b
1&
1]
1%
0c
0@
0d
0(
b0 \
b0 "
b0 m
b110 u
b110 ?
b110 j
b110 {
b100 t
b100 >
b100 v
b1000 g
b1000 C
b1000 s
b1001000 i
b1001000 /
b1001000 k
b1100001000000000000100100000 S
b1100001000000000000100100000 :
b1100001000000000000100100000 Y
b1001000 N
b1001000 P
b1000000011000 I
b1000000011000 8
b1000000011000 J
b1000000011000 U
b101011 6
b101011 [
b1000 =
b1000 e
b1000 q
b11000 <
b11000 p
b0 B
b0 f
b1000 -
b1000 n
b1001000 .
b1001000 h
b1000000010100 G
b10101111000010000000000001001000 1
b10101111000010000000000001001000 K
b10101111000010000000000001001000 R
b10101111000010000000000001001000 ~
b1000000010100 7
b1000000010100 H
b1000000010100 }
b1110 2
b1110 ,
1+
#280
0+
#290
b1000 *"
b1000 D
b1000 r
b1000 y
b1000 #
b1000 z
b1000 ("
b10000 O
b1000000011100 Z
b1000000011100 0
b1000000011100 F
b100 l
b100 !
b100 w
b100 Q
b100 L
b1000000011100 W
b1000000011100 ;
b1000000011100 X
b1000000101100 M
b1000000101100 9
b1000000101100 V
1d
1(
1]
1%
0b
0&
b100 u
b100 ?
b100 j
b100 {
b11000 g
b11000 C
b11000 s
b100 i
b100 /
b100 k
b1100011000000000000000010000 S
b1100011000000000000000010000 :
b1100011000000000000000010000 Y
b100 N
b100 P
b1000000011100 I
b1000000011100 8
b1000000011100 J
b1000000011100 U
b1000 6
b1000 [
b11000 =
b11000 e
b11000 q
b100 -
b100 n
b100 .
b100 h
b1000000011000 G
b100011000110000000000000000100 1
b100011000110000000000000000100 K
b100011000110000000000000000100 R
b100011000110000000000000000100 ~
b1000000011000 7
b1000000011000 H
b1000000011000 }
b1111 2
b1111 ,
1+
#300
0+
#310
b0 *"
b0 D
b0 r
1E
b11110000010000000 O
b1000000100000 Z
b1000000100000 0
b1000000100000 F
b0 y
b0 #
b0 z
b0 ("
b0 l
b0 !
b0 w
b111100000100000 Q
b111100000100000 L
b1000000100000 W
b1000000100000 ;
b1000000100000 X
b11111000010100000 M
b11111000010100000 9
b11111000010100000 V
b10 \
b10 "
b10 m
1c
1@
0]
0%
1d
1(
b0 u
b0 ?
b0 j
b0 {
b0 t
b0 >
b0 v
b1111 g
b1111 C
b1111 s
b111100000100000 i
b111100000100000 /
b111100000100000 k
b11110000010000000 S
b11110000010000000 :
b11110000010000000 Y
b111100000100000 N
b111100000100000 P
b1000000100000 I
b1000000100000 8
b1000000100000 J
b1000000100000 U
b0 <
b0 p
b0 6
b0 [
b0 =
b0 e
b0 q
b1111 B
b1111 f
b100000 -
b100000 n
b111100000100000 .
b111100000100000 h
b1000000011100 G
b111100000100000 1
b111100000100000 K
b111100000100000 R
b111100000100000 ~
b1000000011100 7
b1000000011100 H
b1000000011100 }
b10000 2
b10000 ,
1+
#320
0+
#330
b1000000100100 Z
b1000000100100 0
b1000000100100 F
b1000000100100 W
b1000000100100 ;
b1000000100100 X
b11111000010100100 M
b11111000010100100 9
b11111000010100100 V
b1000000100100 I
b1000000100100 8
b1000000100100 J
b1000000100100 U
b1000000100000 G
b1000000100000 7
b1000000100000 H
b1000000100000 }
b10001 2
b10001 ,
1+
#340
0+
#350
b11100 *"
b11100 D
b11100 r
b100 O
b1000000101000 Z
b1000000101000 0
b1000000101000 F
0T
0)
b110 o
b110 $
b110 x
b11100 y
0E
b11100 #
b11100 z
b11100 ("
b1000 l
b1000 !
b1000 w
b1 Q
b1 L
b1000000101000 W
b1000000101000 ;
b1000000101000 X
b1000000101100 M
b1000000101100 9
b1000000101100 V
1^
1*
0c
0@
0d
0(
b1 \
b1 "
b1 m
b1000 u
b1000 ?
b1000 j
b1000 {
b100100 t
b100100 >
b100100 v
b11000 g
b11000 C
b11000 s
b1 i
b1 /
b1 k
b1100111000000000000000000100 S
b1100111000000000000000000100 :
b1100111000000000000000000100 Y
b1 N
b1 P
b1000000101000 I
b1000000101000 8
b1000000101000 J
b1000000101000 U
b100 6
b100 [
b11000 =
b11000 e
b11000 q
b11001 <
b11001 p
b0 B
b0 f
b1 -
b1 n
b1 .
b1 h
b1000000100100 G
b10011001110000000000000000001 1
b10011001110000000000000000001 K
b10011001110000000000000000001 R
b10011001110000000000000000001 ~
b1000000100100 7
b1000000100100 H
b1000000100100 }
b10010 2
b10010 ,
1+
#360
0+
#370
b0 *"
b0 D
b0 r
1E
b1000000001000 O
b10 o
b10 $
b10 x
b0 y
b0 #
b0 z
b0 ("
b0 l
b0 !
b0 w
b1000000001000 Z
b1000000001000 0
b1000000001000 F
b10000000010 Q
b10000000010 L
b1000000101100 W
b1000000101100 ;
b1000000101100 X
b10000000110100 M
b10000000110100 9
b10000000110100 V
1_
13
0^
0*
b0 \
b0 "
b0 m
b0 g
b0 C
b0 s
b0 u
b0 ?
b0 j
b0 {
b0 t
b0 >
b0 v
b10000000010 i
b10000000010 /
b10000000010 k
b1000000001000 S
b1000000001000 :
b1000000001000 Y
b10000000010 N
b10000000010 P
b1000000101100 I
b1000000101100 8
b1000000101100 J
b1000000101100 U
b10 6
b10 [
b0 =
b0 e
b0 q
b0 <
b0 p
b10 -
b10 n
b10000000010 .
b10000000010 h
b1000000101000 G
b1000000000000000010000000010 1
b1000000000000000010000000010 K
b1000000000000000010000000010 R
b1000000000000000010000000010 ~
b1000000101000 7
b1000000101000 H
b1000000101000 }
b10011 2
b10011 ,
1+
#380
0+
#390
b0 O
b1000 y
0E
b1000 #
b1000 z
b1000 ("
b1000000001100 Z
b1000000001100 0
b1000000001100 F
b0 Q
b0 L
b1000000001100 W
b1000000001100 ;
b1000000001100 X
b1000000001100 M
b1000000001100 9
b1000000001100 V
1`
14
1d
1(
1a
1'
1]
1%
0_
03
b10 u
b10 ?
b10 j
b10 {
b1000 t
b1000 >
b1000 v
b10 g
b10 C
b10 s
b0 i
b0 /
b0 k
b1100000010000000000000000000 S
b1100000010000000000000000000 :
b1100000010000000000000000000 Y
b0 N
b0 P
b1000000001100 I
b1000000001100 8
b1000000001100 J
b1000000001100 U
b11000 <
b11000 p
b100011 6
b100011 [
b10 =
b10 e
b10 q
b0 -
b0 n
b0 .
b0 h
b1000000001000 G
b10001111000000100000000000000000 1
b10001111000000100000000000000000 K
b10001111000000100000000000000000 R
b10001111000000100000000000000000 ~
b1000000001000 7
b1000000001000 H
b1000000001000 }
b10100 2
b10100 ,
1+
#391
b11 *"
b11 D
b11 r
b11 5
b11 |
b11 )"
1!"
#400
0+
#410
b110 *"
b110 D
b110 r
b110 5
b110 |
b110 )"
b101100 y
b101100 #
b101100 z
b101100 ("
b10010000 O
b1000000010000 Z
b1000000010000 0
b1000000010000 F
b100100 l
b100100 !
b100100 w
b100100 Q
b100100 L
b1000000010000 W
b1000000010000 ;
b1000000010000 X
b1000010100000 M
b1000010100000 9
b1000010100000 V
b100 u
b100 ?
b100 j
b100 {
b11 g
b11 C
b11 s
b100100 i
b100100 /
b100100 k
b1100000011000000000010010000 S
b1100000011000000000010010000 :
b1100000011000000000010010000 Y
b100100 N
b100100 P
b1000000010000 I
b1000000010000 8
b1000000010000 J
b1000000010000 U
b11 =
b11 e
b11 q
b100100 -
b100100 n
b100100 .
b100100 h
b1000000001100 G
b10001111000000110000000000100100 1
b10001111000000110000000000100100 K
b10001111000000110000000000100100 R
b10001111000000110000000000100100 ~
b1000000001100 7
b1000000001100 H
b1000000001100 }
b10101 2
b10101 ,
1+
#420
0+
#430
b10000000010000000 O
b1000000010100 Z
b1000000010100 0
b1000000010100 F
b100000000000000000000000000 5
b100000000000000000000000000 |
b100000000000000000000000000 )"
b1000 g
b1000 C
b1000 s
b1001 *"
b1001 D
b1001 r
b1001 y
b1001 #
b1001 z
b1001 ("
b110 l
b110 !
b110 w
b100000000100000 Q
b100000000100000 L
b1000000010100 W
b1000000010100 ;
b1000000010100 X
b10001000010010100 M
b10001000010010100 9
b10001000010010100 V
b10 \
b10 "
b10 m
1c
1@
0]
0%
0a
0'
1d
1(
0`
04
b110 u
b110 ?
b110 j
b110 {
b11 t
b11 >
b11 v
b100000000100000 i
b100000000100000 /
b100000000100000 k
b1000011010000000010000000 S
b1000011010000000010000000 :
b1000011010000000010000000 Y
b100000000100000 N
b100000000100000 P
b1000000010100 I
b1000000010100 8
b1000000010100 J
b1000000010100 U
b0 6
b0 [
b10 <
b10 p
b1000 B
b1000 f
b100000 -
b100000 n
b100000000100000 .
b100000000100000 h
b1000000010000 G
b10000110100000000100000 1
b10000110100000000100000 K
b10000110100000000100000 R
b10000110100000000100000 ~
b1000000010000 7
b1000000010000 H
b1000000010000 }
b10110 2
b10110 ,
1+
#431
b0 5
b0 |
b0 )"
0!"
#440
0+
#450
b1010000 *"
b1010000 D
b1010000 r
b100100000 O
b1000000011000 Z
b1000000011000 0
b1000000011000 F
b1010000 y
b1010000 #
b1010000 z
b1010000 ("
b1001000 l
b1001000 !
b1001000 w
b1001000 Q
b1001000 L
b1000000011000 W
b1000000011000 ;
b1000000011000 X
b1000100111000 M
b1000100111000 9
b1000100111000 V
1b
1&
1]
1%
0c
0@
0d
0(
b0 \
b0 "
b0 m
b1001 u
b1001 ?
b1001 j
b1001 {
b1000 t
b1000 >
b1000 v
b1000 g
b1000 C
b1000 s
b1001000 i
b1001000 /
b1001000 k
b1100001000000000000100100000 S
b1100001000000000000100100000 :
b1100001000000000000100100000 Y
b1001000 N
b1001000 P
b1000000011000 I
b1000000011000 8
b1000000011000 J
b1000000011000 U
b101011 6
b101011 [
b1000 =
b1000 e
b1000 q
b11000 <
b11000 p
b0 B
b0 f
b1000 -
b1000 n
b1001000 .
b1001000 h
b1000000010100 G
b10101111000010000000000001001000 1
b10101111000010000000000001001000 K
b10101111000010000000000001001000 R
b10101111000010000000000001001000 ~
b1000000010100 7
b1000000010100 H
b1000000010100 }
b10111 2
b10111 ,
1+
#460
0+
