V2/processor.vcd
$date
	Mon Apr 07 14:23:56 2014
$end
$version
	Icarus Verilog
$end
$timescale
	1ps
$end
$scope module processor_tb $end
$scope module CPU $end
$var wire 32 ! ALUSrc_out [31:0] $end
$var wire 2 " ALU_op [1:0] $end
$var wire 32 # ALU_out [31:0] $end
$var wire 4 $ ALUctrl_op [3:0] $end
$var wire 1 % ALUsrc_sel $end
$var wire 1 & MemWrite_sel $end
$var wire 1 ' MemtoReg_sel $end
$var wire 1 ( RegWrite_sel $end
$var wire 1 ) branch_ctl $end
$var wire 1 * branch_sel $end
$var wire 1 + clk $end
$var wire 6 , func_code [5:0] $end
$var wire 16 - imm [15:0] $end
$var wire 32 . immExtended [31:0] $end
$var wire 32 / inPC [31:0] $end
$var wire 32 0 instruction [31:0] $end
$var wire 1 1 jump_sel $end
$var wire 1 2 memRead_sel $end
$var wire 32 3 memory_out [31:0] $end
$var wire 6 4 opcode [5:0] $end
$var wire 32 5 outPC [31:0] $end
$var wire 32 6 outPCadd [31:0] $end
$var wire 32 7 outPCbranch [31:0] $end
$var wire 32 8 outPCjump [31:0] $end
$var wire 32 9 pcTemp [31:0] $end
$var wire 5 : rAddrA [4:0] $end
$var wire 5 ; rAddrB [4:0] $end
$var wire 32 < rDataA [31:0] $end
$var wire 32 = rDataB [31:0] $end
$var wire 1 > regDst_sel $end
$var wire 1 ? rst $end
$var wire 5 @ wAddr [4:0] $end
$var wire 5 A wAddrMux [4:0] $end
$var wire 32 B wData [31:0] $end
$var wire 1 C zero $end
$scope module PC $end
$var wire 1 + clk $end
$var wire 32 D inPC [31:0] $end
$var wire 1 ? rst $end
$var reg 32 E outPC [31:0] $end
$upscope $end
$scope module nextPC $end
$var wire 32 F inA [31:0] $end
$var reg 32 G outA [31:0] $end
$upscope $end
$scope module branchPC $end
$var wire 32 H inPC [31:0] $end
$var wire 32 I instruction [31:0] $end
$var wire 32 J tempExt [31:0] $end
$var reg 32 K branchAddr [31:0] $end
$var reg 16 L temp1 [15:0] $end
$var reg 32 M temp2 [31:0] $end
$scope module bTemp $end
$var wire 16 N extend [15:0] $end
$var reg 32 O extended [31:0] $end
$upscope $end
$upscope $end
$scope module jumpPC $end
$var wire 32 P instruction [31:0] $end
$var reg 32 Q jumpAddr [31:0] $end
$upscope $end
$scope module branchCtl_2mux $end
$var wire 1 * branch_sel $end
$var wire 1 C zero $end
$var reg 1 R branch $end
$upscope $end
$scope module pcMux1 $end
$var wire 32 S inA [31:0] $end
$var wire 32 T inB [31:0] $end
$var wire 1 ) sel $end
$var reg 32 U out [31:0] $end
$upscope $end
$scope module pcMux2 $end
$var wire 32 V inA [31:0] $end
$var wire 32 W inB [31:0] $end
$var wire 1 1 sel $end
$var reg 32 X out [31:0] $end
$upscope $end
$scope module control_logic $end
$var wire 6 Y opcode [5:0] $end
$var reg 2 Z aluop [1:0] $end
$var reg 1 [ alusrc $end
$var reg 1 \ branch $end
$var reg 1 ] jump $end
$var reg 1 ^ memread $end
$var reg 1 _ memtoreg $end
$var reg 1 ` memwrite $end
$var reg 1 a regdest $end
$var reg 1 b regwrite $end
$upscope $end
$scope module writeMux $end
$var wire 5 c inA [4:0] $end
$var wire 5 d inB [4:0] $end
$var wire 1 > sel $end
$var reg 5 e out [4:0] $end
$upscope $end
$scope module register $end
$var wire 1 + clk $end
$var wire 5 f readReg1 [4:0] $end
$var wire 5 g readReg2 [4:0] $end
$var wire 1 ( regWrite $end
$var wire 32 h writeData [31:0] $end
$var wire 5 i writeReg [4:0] $end
$var reg 32 j readData1 [31:0] $end
$var reg 32 k readData2 [31:0] $end
$upscope $end
$scope module immediate $end
$var wire 16 l extend [15:0] $end
$var reg 32 m extended [31:0] $end
$upscope $end
$scope module ALUSrc $end
$var wire 32 n inA [31:0] $end
$var wire 32 o inB [31:0] $end
$var wire 1 % sel $end
$var reg 32 p out [31:0] $end
$upscope $end
$scope module ALUctrl $end
$var wire 2 q aluop [1:0] $end
$var wire 6 r funct [5:0] $end
$var reg 4 s operation [3:0] $end
$upscope $end
$scope module ALU_unit $end
$var wire 32 t data_a [31:0] $end
$var wire 32 u data_b [31:0] $end
$var wire 4 v operation [3:0] $end
$var wire 1 C zero $end
$var reg 32 w aluresult [31:0] $end
$upscope $end
$scope module memory_unit $end
$var wire 32 x data_addr [32:1] $end
$var wire 32 y data_in [31:0] $end
$var wire 32 z data_out [31:0] $end
$var wire 32 { inst_addr [32:1] $end
$var wire 32 | instr [31:0] $end
$var wire 1 2 mem_read $end
$var wire 1 & mem_write $end
$var reg 32 } data_addr_reg [31:0] $end
$var integer 32 ~ file [31:0] $end
$var integer 32 !" i [31:0] $end
$var reg 32 "" inst_addr_reg [31:0] $end
$var integer 32 #" r [31:0] $end
$var reg 96 $" rest [95:0] $end
$scope begin file_block $end
$upscope $end
$upscope $end
$scope module memtoReg_mux $end
$var wire 32 %" inA [31:0] $end
$var wire 32 &" inB [31:0] $end
$var wire 1 ' sel $end
$var reg 32 '" out [31:0] $end
$upscope $end
$upscope $end
$upscope $end
$enddefinitions $end
#0
$dumpvars
bx '"
b0 &"
bx %"
b101010 $"
b10000 #"
b1000010000000 ""
b1001 !"
b10000000000000000000000000000011 ~
b1010000 }
b100000000110000000000000000000 |
b1000000000000 {
b0 z
bx y
bx x
bx w
b10 v
bx u
bx t
b10 s
b0 r
b0 q
bx p
bz o
bx n
bz m
bz l
bx k
bx j
b11000 i
bx h
b11000 g
b0 f
b11000 e
b0 d
b11000 c
0b
0a
0`
0_
0^
0]
0\
0[
b0 Z
b1000 Y
b1000000000100 X
b11000000000000000000000 W
b1000000000100 V
b1000000000100 U
b1000000000100 T
b1000000000100 S
0R
b11000000000000000000000 Q
b100000000110000000000000000000 P
b0 O
b0 N
b0 M
b0 L
b1000000000100 K
b0 J
b100000000110000000000000000000 I
b1000000000100 H
b1000000000100 G
b1000000000000 F
b1000000000000 E
b1000000000100 D
xC
bx B
b11000 A
b0 @
1?
0>
bx =
bx <
b11000 ;
b0 :
b1000000000100 9
b11000000000000000000000 8
b1000000000100 7
b1000000000100 6
b1000000000000 5
b1000 4
b0 3
02
01
b100000000110000000000000000000 0
b1000000000100 /
bz .
bz -
b0 ,
0+
0*
0)
0(
0'
0&
0%
b10 $
bx #
b0 "
bx !
$end
#1000
0?
#10000
b10010000 M
b11001 e
b11001 A
b11001 i
b1000000001000 X
b1000000001000 /
b1000000001000 D
b100100 O
b100100 J
b1000000001000 U
b1000000001000 9
b1000000001000 V
b11001 ;
b11001 c
b11001 g
b100100 ,
b100100 r
b11001000000000010010000 Q
b11001000000000010010000 8
b11001000000000010010000 W
b1000010011000 K
b1000010011000 7
b1000010011000 T
b100100 L
b100100 N
b1000000001000 G
b1000000001000 6
b1000000001000 H
b1000000001000 S
b1000000000100 E
b100000000110010000000000100100 0
b100000000110010000000000100100 I
b100000000110010000000000100100 P
b100000000110010000000000100100 |
b1000000000100 5
b1000000000100 F
b1000000000100 {
1+
#20000
0+
#30000
bx 3
bx z
bx &"
bx '"
bx B
bx h
bz p
bz !
bz u
b0 M
1^
12
1b
1(
1_
1'
1[
1%
b10 e
b10 A
b10 i
b1000000001100 X
b1000000001100 /
b1000000001100 D
b0 O
b0 J
b1000000001100 U
b1000000001100 9
b1000000001100 V
b11000 :
b11000 f
b100011 4
b100011 Y
b10 ;
b10 c
b10 g
b0 ,
b0 r
b1100000010000000000000000000 Q
b1100000010000000000000000000 8
b1100000010000000000000000000 W
b1000000001100 K
b1000000001100 7
b1000000001100 T
b0 L
b0 N
b1000000001100 G
b1000000001100 6
b1000000001100 H
b1000000001100 S
b1000000001000 E
b10001111000000100000000000000000 0
b10001111000000100000000000000000 I
b10001111000000100000000000000000 P
b10001111000000100000000000000000 |
b1000000001000 5
b1000000001000 F
b1000000001000 {
1+
#40000
0+
#50000
b10010000 M
b11 e
b11 A
b11 i
b1000000010000 X
b1000000010000 /
b1000000010000 D
b100100 O
b100100 J
b1000000010000 U
b1000000010000 9
b1000000010000 V
b11 ;
b11 c
b11 g
b100100 ,
b100100 r
b1100000011000000000010010000 Q
b1100000011000000000010010000 8
b1100000011000000000010010000 W
b1000010100000 K
b1000010100000 7
b1000010100000 T
b100100 L
b100100 N
b1000000010000 G
b1000000010000 6
b1000000010000 H
b1000000010000 S
b1000000001100 E
b10001111000000110000000000100100 0
b10001111000000110000000000100100 I
b10001111000000110000000000100100 P
b10001111000000110000000000100100 |
b1000000001100 5
b1000000001100 F
b1000000001100 {
1+
#60000
0+
#70000
b1000 e
b1000 A
b1000 i
bx p
bx !
bx u
b0 3
b0 z
b0 &"
b10000000010000000 M
b10 Z
b10 "
b10 q
1a
1>
0[
0%
0_
0'
1b
1(
0^
02
b1000000010100 X
b1000000010100 /
b1000000010100 D
b100000000100000 O
b100000000100000 J
b1000000010100 U
b1000000010100 9
b1000000010100 V
b0 4
b0 Y
b10 :
b10 f
b1000 @
b1000 d
b100000 ,
b100000 r
b1000011010000000010000000 Q
b1000011010000000010000000 8
b1000011010000000010000000 W
b10001000010010100 K
b10001000010010100 7
b10001000010010100 T
b100000000100000 L
b100000000100000 N
b1000000010100 G
b1000000010100 6
b1000000010100 H
b1000000010100 S
b1000000010000 E
b10000110100000000100000 0
b10000110100000000100000 I
b10000110100000000100000 P
b10000110100000000100000 |
b1000000010000 5
b1000000010000 F
b1000000010000 {
1+
#80000
0+
#90000
bz p
bz !
bz u
b100100000 M
1`
1&
1[
1%
0a
0>
0b
0(
b0 Z
b0 "
b0 q
b1000 e
b1000 A
b1000 i
b1000000011000 X
b1000000011000 /
b1000000011000 D
b1001000 O
b1001000 J
b1000000011000 U
b1000000011000 9
b1000000011000 V
b101011 4
b101011 Y
b1000 ;
b1000 c
b1000 g
b11000 :
b11000 f
b0 @
b0 d
b1000 ,
b1000 r
b1100001000000000000100100000 Q
b1100001000000000000100100000 8
b1100001000000000000100100000 W
b1000100111000 K
b1000100111000 7
b1000100111000 T
b1001000 L
b1001000 N
b1000000011000 G
b1000000011000 6
b1000000011000 H
b1000000011000 S
b1000000010100 E
b10101111000010000000000001001000 0
b10101111000010000000000001001000 I
b10101111000010000000000001001000 P
b10101111000010000000000001001000 |
b1000000010100 5
b1000000010100 F
b1000000010100 {
1+
#100000
0+
#110000
bx p
bx !
bx u
b10000 M
0[
0%
0`
0&
b11000 e
b11000 A
b11000 i
b1000000011100 X
b1000000011100 /
b1000000011100 D
b100 O
b100 J
b1000000011100 U
b1000000011100 9
b1000000011100 V
b1000 4
b1000 Y
b11000 ;
b11000 c
b11000 g
b100 ,
b100 r
b1100011000000000000000010000 Q
b1100011000000000000000010000 8
b1100011000000000000000010000 W
b1000000101100 K
b1000000101100 7
b1000000101100 T
b100 L
b100 N
b1000000011100 G
b1000000011100 6
b1000000011100 H
b1000000011100 S
b1000000011000 E
b100011000110000000000000000100 0
b100011000110000000000000000100 I
b100011000110000000000000000100 P
b100011000110000000000000000100 |
b1000000011000 5
b1000000011000 F
b1000000011000 {
1+
#120000
0+
#130000
b11110000010000000 M
b10 Z
b10 "
b10 q
1b
1(
1a
1>
b1111 e
b1111 A
b1111 i
b1000000100000 X
b1000000100000 /
b1000000100000 D
b111100000100000 O
b111100000100000 J
b1000000100000 U
b1000000100000 9
b1000000100000 V
b0 :
b0 f
b0 4
b0 Y
b0 ;
b0 c
b0 g
b1111 @
b1111 d
b100000 ,
b100000 r
b11110000010000000 Q
b11110000010000000 8
b11110000010000000 W
b11111000010100000 K
b11111000010100000 7
b11111000010100000 T
b111100000100000 L
b111100000100000 N
b1000000100000 G
b1000000100000 6
b1000000100000 H
b1000000100000 S
b1000000011100 E
b111100000100000 0
b111100000100000 I
b111100000100000 P
b111100000100000 |
b1000000011100 5
b1000000011100 F
b1000000011100 {
1+
#140000
0+
#150000
b1000000100100 X
b1000000100100 /
b1000000100100 D
b1000000100100 U
b1000000100100 9
b1000000100100 V
b11111000010100100 K
b11111000010100100 7
b11111000010100100 T
b1000000100100 G
b1000000100100 6
b1000000100100 H
b1000000100100 S
b1000000100000 E
b1000000100000 5
b1000000100000 F
b1000000100000 {
1+
#160000
0+
#170000
xR
x)
b110 s
b110 $
b110 v
b100 M
1\
1*
0a
0>
0b
0(
b1 Z
b1 "
b1 q
b11000 e
b11000 A
b11000 i
b1000000101100 X
b1000000101100 /
b1000000101100 D
b1 O
b1 J
b1000000101100 U
b1000000101100 9
b1000000101100 V
b100 4
b100 Y
b11000 ;
b11000 c
b11000 g
b11001 :
b11001 f
b0 @
b0 d
b1 ,
b1 r
b1100111000000000000000000100 Q
b1100111000000000000000000100 8
b1100111000000000000000000100 W
b1000000101100 K
b1000000101100 7
b1000000101100 T
b1 L
b1 N
b1000000101000 G
b1000000101000 6
b1000000101000 H
b1000000101000 S
b1000000100100 E
b10011001110000000000000000001 0
b10011001110000000000000000001 I
b10011001110000000000000000001 P
b10011001110000000000000000001 |
b1000000100100 5
b1000000100100 F
b1000000100100 {
1+
#180000
0+
#190000
0R
0)
b10 s
b10 $
b10 v
b0 M
0\
0*
b0 Z
b0 "
b0 q
b10 e
b10 A
b10 i
b1000000110000 X
b1000000110000 /
b1000000110000 D
b0 O
b0 J
b1000000110000 U
b1000000110000 9
b1000000110000 V
b1000 4
b1000 Y
b10 ;
b10 c
b10 g
b0 :
b0 f
b0 ,
b0 r
b10000000000000000000 Q
b10000000000000000000 8
b10000000000000000000 W
b1000000110000 K
b1000000110000 7
b1000000110000 T
b0 L
b0 N
b1000000110000 G
b1000000110000 6
b1000000110000 H
b1000000110000 S
b1000000101100 E
b100000000000100000000000000000 0
b100000000000100000000000000000 I
b100000000000100000000000000000 P
b100000000000100000000000000000 |
b1000000101100 5
b1000000101100 F
b1000000101100 {
1+
#200000
0+
#210000
bx 3
bx z
bx &"
bx '"
bx B
bx h
bz p
bz !
bz u
b100100000 M
1^
12
1b
1(
1_
1'
1[
1%
b1000 e
b1000 A
b1000 i
b1000000110100 X
b1000000110100 /
b1000000110100 D
b1001000 O
b1001000 J
b1000000110100 U
b1000000110100 9
b1000000110100 V
b100011 4
b100011 Y
b1000 ;
b1000 c
b1000 g
b10 :
b10 f
b1000 ,
b1000 r
b1001000000000000100100000 Q
b1001000000000000100100000 8
b1001000000000000100100000 W
b1000101010100 K
b1000101010100 7
b1000101010100 T
b1001000 L
b1001000 N
b1000000110100 G
b1000000110100 6
b1000000110100 H
b1000000110100 S
b1000000110000 E
b10001100010010000000000001001000 0
b10001100010010000000000001001000 I
b10001100010010000000000001001000 P
b10001100010010000000000001001000 |
b1000000110000 5
b1000000110000 F
b1000000110000 {
1+
#220000
0+
#230000
bx p
bx !
bx u
b0 3
b0 z
b0 &"
b10000 M
0[
0%
0_
0'
0b
0(
0^
02
b10 e
b10 A
b10 i
b1000000111000 X
b1000000111000 /
b1000000111000 D
b100 O
b100 J
b1000000111000 U
b1000000111000 9
b1000000111000 V
b1000 4
b1000 Y
b10 ;
b10 c
b10 g
b100 ,
b100 r
b1000010000000000000010000 Q
b1000010000000000000010000 8
b1000010000000000000010000 W
b1000001001000 K
b1000001001000 7
b1000001001000 T
b100 L
b100 N
b1000000111000 G
b1000000111000 6
b1000000111000 H
b1000000111000 S
b1000000110100 E
b100000010000100000000000000100 0
b100000010000100000000000000100 I
b100000010000100000000000000100 P
b100000010000100000000000000100 |
b1000000110100 5
b1000000110100 F
b1000000110100 {
1+
#240000
0+
#250000
bx 3
bx z
bx &"
bx '"
bx B
bx h
bz p
bz !
bz u
b100100000 M
1^
12
1b
1(
1_
1'
1[
1%
b1001 e
b1001 A
b1001 i
b1000000111100 X
b1000000111100 /
b1000000111100 D
b1001000 O
b1001000 J
b1000000111100 U
b1000000111100 9
b1000000111100 V
b100011 4
b100011 Y
b1001 ;
b1001 c
b1001 g
b1000 ,
b1000 r
b1001001000000000100100000 Q
b1001001000000000100100000 8
b1001001000000000100100000 W
b1000101011100 K
b1000101011100 7
b1000101011100 T
b1001000 L
b1001000 N
b1000000111100 G
b1000000111100 6
b1000000111100 H
b1000000111100 S
b1000000111000 E
b10001100010010010000000001001000 0
b10001100010010010000000001001000 I
b10001100010010010000000001001000 P
b10001100010010010000000001001000 |
b1000000111000 5
b1000000111000 F
b1000000111000 {
1+
#260000
0+
#270000
bx p
bx !
bx u
b0 3
b0 z
b0 &"
b10000 M
0[
0%
0_
0'
0b
0(
0^
02
b10 e
b10 A
b10 i
b1000001000000 X
b1000001000000 /
b1000001000000 D
b100 O
b100 J
b1000001000000 U
b1000001000000 9
b1000001000000 V
b1000 4
b1000 Y
b10 ;
b10 c
b10 g
b100 ,
b100 r
b1000010000000000000010000 Q
b1000010000000000000010000 8
b1000010000000000000010000 W
b1000001010000 K
b1000001010000 7
b1000001010000 T
b100 L
b100 N
b1000001000000 G
b1000001000000 6
b1000001000000 H
b1000001000000 S
b1000000111100 E
b100000010000100000000000000100 0
b100000010000100000000000000100 I
b100000010000100000000000000100 P
b100000010000100000000000000100 |
b1000000111100 5
b1000000111100 F
b1000000111100 {
1+
#280000
0+
#290000
bx 3
bx z
bx &"
bx '"
bx B
bx h
bz p
bz !
bz u
b100100000 M
1^
12
1b
1(
1_
1'
1[
1%
b1010 e
b1010 A
b1010 i
b1000001000100 X
b1000001000100 /
b1000001000100 D
b1001000 O
b1001000 J
b1000001000100 U
b1000001000100 9
b1000001000100 V
b100011 4
b100011 Y
b1010 ;
b1010 c
b1010 g
b1000 ,
b1000 r
b1001010000000000100100000 Q
b1001010000000000100100000 8
b1001010000000000100100000 W
b1000101100100 K
b1000101100100 7
b1000101100100 T
b1001000 L
b1001000 N
b1000001000100 G
b1000001000100 6
b1000001000100 H
b1000001000100 S
b1000001000000 E
b10001100010010100000000001001000 0
b10001100010010100000000001001000 I
b10001100010010100000000001001000 P
b10001100010010100000000001001000 |
b1000001000000 5
b1000001000000 F
b1000001000000 {
1+
#300000
0+
#310000
bx p
bx !
bx u
b0 3
b0 z
b0 &"
b10000 M
0[
0%
0_
0'
0b
0(
0^
02
b10 e
b10 A
b10 i
b1000001001000 X
b1000001001000 /
b1000001001000 D
b100 O
b100 J
b1000001001000 U
b1000001001000 9
b1000001001000 V
b1000 4
b1000 Y
b10 ;
b10 c
b10 g
b100 ,
b100 r
b1000010000000000000010000 Q
b1000010000000000000010000 8
b1000010000000000000010000 W
b1000001011000 K
b1000001011000 7
b1000001011000 T
b100 L
b100 N
b1000001001000 G
b1000001001000 6
b1000001001000 H
b1000001001000 S
b1000001000100 E
b100000010000100000000000000100 0
b100000010000100000000000000100 I
b100000010000100000000000000100 P
b100000010000100000000000000100 |
b1000001000100 5
b1000001000100 F
b1000001000100 {
1+
#320000
0+
#330000
bx 3
bx z
bx &"
bx '"
bx B
bx h
bz p
bz !
bz u
b100100000 M
1^
12
1b
1(
1_
1'
1[
1%
b1011 e
b1011 A
b1011 i
b1000001001100 X
b1000001001100 /
b1000001001100 D
b1001000 O
b1001000 J
b1000001001100 U
b1000001001100 9
b1000001001100 V
b100011 4
b100011 Y
b1011 ;
b1011 c
b1011 g
b1000 ,
b1000 r
b1001011000000000100100000 Q
b1001011000000000100100000 8
b1001011000000000100100000 W
b1000101101100 K
b1000101101100 7
b1000101101100 T
b1001000 L
b1001000 N
b1000001001100 G
b1000001001100 6
b1000001001100 H
b1000001001100 S
b1000001001000 E
b10001100010010110000000001001000 0
b10001100010010110000000001001000 I
b10001100010010110000000001001000 P
b10001100010010110000000001001000 |
b1000001001000 5
b1000001001000 F
b1000001001000 {
1+
#340000
0+
#350000
bx p
bx !
bx u
b0 3
b0 z
b0 &"
b10000 M
0[
0%
0_
0'
0b
0(
0^
02
b10 e
b10 A
b10 i
b1000001010000 X
b1000001010000 /
b1000001010000 D
b100 O
b100 J
b1000001010000 U
b1000001010000 9
b1000001010000 V
b1000 4
b1000 Y
b10 ;
b10 c
b10 g
b100 ,
b100 r
b1000010000000000000010000 Q
b1000010000000000000010000 8
b1000010000000000000010000 W
b1000001100000 K
b1000001100000 7
b1000001100000 T
b100 L
b100 N
b1000001010000 G
b1000001010000 6
b1000001010000 H
b1000001010000 S
b1000001001100 E
b100000010000100000000000000100 0
b100000010000100000000000000100 I
b100000010000100000000000000100 P
b100000010000100000000000000100 |
b1000001001100 5
b1000001001100 F
b1000001001100 {
1+
#360000
0+
#370000
bx 3
bx z
bx &"
bx '"
bx B
bx h
bz p
bz !
bz u
b100100000 M
1^
12
1b
1(
1_
1'
1[
1%
b1100 e
b1100 A
b1100 i
b1000001010100 X
b1000001010100 /
b1000001010100 D
b1001000 O
b1001000 J
b1000001010100 U
b1000001010100 9
b1000001010100 V
b100011 4
b100011 Y
b1100 ;
b1100 c
b1100 g
b1000 ,
b1000 r
b1001100000000000100100000 Q
b1001100000000000100100000 8
b1001100000000000100100000 W
b1000101110100 K
b1000101110100 7
b1000101110100 T
b1001000 L
b1001000 N
b1000001010100 G
b1000001010100 6
b1000001010100 H
b1000001010100 S
b1000001010000 E
b10001100010011000000000001001000 0
b10001100010011000000000001001000 I
b10001100010011000000000001001000 P
b10001100010011000000000001001000 |
b1000001010000 5
b1000001010000 F
b1000001010000 {
1+
#380000
0+
#390000
bx p
bx !
bx u
b0 3
b0 z
b0 &"
b10000 M
0[
0%
0_
0'
0b
0(
0^
02
b10 e
b10 A
b10 i
b1000001011000 X
b1000001011000 /
b1000001011000 D
b100 O
b100 J
b1000001011000 U
b1000001011000 9
b1000001011000 V
b1000 4
b1000 Y
b10 ;
b10 c
b10 g
b100 ,
b100 r
b1000010000000000000010000 Q
b1000010000000000000010000 8
b1000010000000000000010000 W
b1000001101000 K
b1000001101000 7
b1000001101000 T
b100 L
b100 N
b1000001011000 G
b1000001011000 6
b1000001011000 H
b1000001011000 S
b1000001010100 E
b100000010000100000000000000100 0
b100000010000100000000000000100 I
b100000010000100000000000000100 P
b100000010000100000000000000100 |
b1000001010100 5
b1000001010100 F
b1000001010100 {
1+
#400000
0+
#410000
bx 3
bx z
bx &"
bx '"
bx B
bx h
bz p
bz !
bz u
b100100000 M
1^
12
1b
1(
1_
1'
1[
1%
b1101 e
b1101 A
b1101 i
b1000001011100 X
b1000001011100 /
b1000001011100 D
b1001000 O
b1001000 J
b1000001011100 U
b1000001011100 9
b1000001011100 V
b100011 4
b100011 Y
b1101 ;
b1101 c
b1101 g
b1000 ,
b1000 r
b1001101000000000100100000 Q
b1001101000000000100100000 8
b1001101000000000100100000 W
b1000101111100 K
b1000101111100 7
b1000101111100 T
b1001000 L
b1001000 N
b1000001011100 G
b1000001011100 6
b1000001011100 H
b1000001011100 S
b1000001011000 E
b10001100010011010000000001001000 0
b10001100010011010000000001001000 I
b10001100010011010000000001001000 P
b10001100010011010000000001001000 |
b1000001011000 5
b1000001011000 F
b1000001011000 {
1+
#420000
0+
#430000
bx p
bx !
bx u
b0 3
b0 z
b0 &"
b10000 M
0[
0%
0_
0'
0b
0(
0^
02
b10 e
b10 A
b10 i
b1000001100000 X
b1000001100000 /
b1000001100000 D
b100 O
b100 J
b1000001100000 U
b1000001100000 9
b1000001100000 V
b1000 4
b1000 Y
b10 ;
b10 c
b10 g
b100 ,
b100 r
b1000010000000000000010000 Q
b1000010000000000000010000 8
b1000010000000000000010000 W
b1000001110000 K
b1000001110000 7
b1000001110000 T
b100 L
b100 N
b1000001100000 G
b1000001100000 6
b1000001100000 H
b1000001100000 S
b1000001011100 E
b100000010000100000000000000100 0
b100000010000100000000000000100 I
b100000010000100000000000000100 P
b100000010000100000000000000100 |
b1000001011100 5
b1000001011100 F
b1000001011100 {
1+
#440000
0+
#450000
bx 3
bx z
bx &"
bx '"
bx B
bx h
bz p
bz !
bz u
b100100000 M
1^
12
1b
1(
1_
1'
1[
1%
b1110 e
b1110 A
b1110 i
b1000001100100 X
b1000001100100 /
b1000001100100 D
b1001000 O
b1001000 J
b1000001100100 U
b1000001100100 9
b1000001100100 V
b100011 4
b100011 Y
b1110 ;
b1110 c
b1110 g
b1000 ,
b1000 r
b1001110000000000100100000 Q
b1001110000000000100100000 8
b1001110000000000100100000 W
b1000110000100 K
b1000110000100 7
b1000110000100 T
b1001000 L
b1001000 N
b1000001100100 G
b1000001100100 6
b1000001100100 H
b1000001100100 S
b1000001100000 E
b10001100010011100000000001001000 0
b10001100010011100000000001001000 I
b10001100010011100000000001001000 P
b10001100010011100000000001001000 |
b1000001100000 5
b1000001100000 F
b1000001100000 {
1+
#460000
0+
#470000
bx p
bx !
bx u
b0 3
b0 z
b0 &"
b10000 M
0[
0%
0_
0'
0b
0(
0^
02
b10 e
b10 A
b10 i
b1000001101000 X
b1000001101000 /
b1000001101000 D
b100 O
b100 J
b1000001101000 U
b1000001101000 9
b1000001101000 V
b1000 4
b1000 Y
b10 ;
b10 c
b10 g
b100 ,
b100 r
b1000010000000000000010000 Q
b1000010000000000000010000 8
b1000010000000000000010000 W
b1000001111000 K
b1000001111000 7
b1000001111000 T
b100 L
b100 N
b1000001101000 G
b1000001101000 6
b1000001101000 H
b1000001101000 S
b1000001100100 E
b100000010000100000000000000100 0
b100000010000100000000000000100 I
b100000010000100000000000000100 P
b100000010000100000000000000100 |
b1000001100100 5
b1000001100100 F
b1000001100100 {
1+
#480000
0+
#490000
bx 3
bx z
bx &"
bx '"
bx B
bx h
bz p
bz !
bz u
b100100000 M
1^
12
1b
1(
1_
1'
1[
1%
b1111 e
b1111 A
b1111 i
b1000001101100 X
b1000001101100 /
b1000001101100 D
b1001000 O
b1001000 J
b1000001101100 U
b1000001101100 9
b1000001101100 V
b100011 4
b100011 Y
b1111 ;
b1111 c
b1111 g
b1000 ,
b1000 r
b1001111000000000100100000 Q
b1001111000000000100100000 8
b1001111000000000100100000 W
b1000110001100 K
b1000110001100 7
b1000110001100 T
b1001000 L
b1001000 N
b1000001101100 G
b1000001101100 6
b1000001101100 H
b1000001101100 S
b1000001101000 E
b10001100010011110000000001001000 0
b10001100010011110000000001001000 I
b10001100010011110000000001001000 P
b10001100010011110000000001001000 |
b1000001101000 5
b1000001101000 F
b1000001101000 {
1+
#500000
0+
#510000
bx p
bx !
bx u
b0 3
b0 z
b0 &"
b10000 M
0[
0%
0_
0'
0b
0(
0^
02
b10 e
b10 A
b10 i
b1000001110000 X
b1000001110000 /
b1000001110000 D
b100 O
b100 J
b1000001110000 U
b1000001110000 9
b1000001110000 V
b1000 4
b1000 Y
b10 ;
b10 c
b10 g
b100 ,
b100 r
b1000010000000000000010000 Q
b1000010000000000000010000 8
b1000010000000000000010000 W
b1000010000000 K
b1000010000000 7
b1000010000000 T
b100 L
b100 N
b1000001110000 G
b1000001110000 6
b1000001110000 H
b1000001110000 S
b1000001101100 E
b100000010000100000000000000100 0
b100000010000100000000000000100 I
b100000010000100000000000000100 P
b100000010000100000000000000100 |
b1000001101100 5
b1000001101100 F
b1000001101100 {
1+
#520000
0+
#530000
bx 3
bx z
bx &"
bx '"
bx B
bx h
bz p
bz !
bz u
b100100000 M
1^
12
1b
1(
1_
1'
1[
1%
b11000 e
b11000 A
b11000 i
b1000001110100 X
b1000001110100 /
b1000001110100 D
b1001000 O
b1001000 J
b1000001110100 U
b1000001110100 9
b1000001110100 V
b100011 4
b100011 Y
b11000 ;
b11000 c
b11000 g
b1000 ,
b1000 r
b1011000000000000100100000 Q
b1011000000000000100100000 8
b1011000000000000100100000 W
b1000110010100 K
b1000110010100 7
b1000110010100 T
b1001000 L
b1001000 N
b1000001110100 G
b1000001110100 6
b1000001110100 H
b1000001110100 S
b1000001110000 E
b10001100010110000000000001001000 0
b10001100010110000000000001001000 I
b10001100010110000000000001001000 P
b10001100010110000000000001001000 |
b1000001110000 5
b1000001110000 F
b1000001110000 {
1+
#540000
0+
#550000
bx p
bx !
bx u
b0 3
b0 z
b0 &"
b0 M
0[
0%
0_
0'
0b
0(
0^
02
b0 e
b0 A
b0 i
b1000001111000 X
b1000001111000 /
b1000001111000 D
b0 O
b0 J
b1000001111000 U
b1000001111000 9
b1000001111000 V
b111111 4
b111111 Y
b0 ;
b0 c
b0 g
b0 :
b0 f
b0 ,
b0 r
b0 Q
b0 8
b0 W
b1000001111000 K
b1000001111000 7
b1000001111000 T
b0 L
b0 N
b1000001111000 G
b1000001111000 6
b1000001111000 H
b1000001111000 S
b1000001110100 E
b11111100000000000000000000000000 0
b11111100000000000000000000000000 I
b11111100000000000000000000000000 P
b11111100000000000000000000000000 |
b1000001110100 5
b1000001110100 F
b1000001110100 {
1+
#560000
0+
#570000
b1000001111100 X
b1000001111100 /
b1000001111100 D
b10 Z
b10 "
b10 q
1b
1(
1a
1>
b1000001111100 U
b1000001111100 9
b1000001111100 V
b0 4
b0 Y
b1000001111100 K
b1000001111100 7
b1000001111100 T
b1000001111100 G
b1000001111100 6
b1000001111100 H
b1000001111100 S
b1000001111000 E
b0 0
b0 I
b0 P
b0 |
b1000001111000 5
b1000001111000 F
b1000001111000 {
1+
#580000
0+
#590000
b1000010000000 X
b1000010000000 /
b1000010000000 D
b1000010000000 U
b1000010000000 9
b1000010000000 V
b1000010000000 K
b1000010000000 7
b1000010000000 T
b1000010000000 G
b1000010000000 6
b1000010000000 H
b1000010000000 S
b1000001111100 E
b1000001111100 5
b1000001111100 F
b1000001111100 {
1+
#600000
0+
#610000
b1000010000100 X
b1000010000100 /
b1000010000100 D
b1000010000100 U
b1000010000100 9
b1000010000100 V
b1000010000100 K
b1000010000100 7
b1000010000100 T
b1000010000100 G
b1000010000100 6
b1000010000100 H
b1000010000100 S
b1000010000000 E
b1000010000000 5
b1000010000000 F
b1000010000000 {
1+
#620000
0+
