V2/processor.vcd
$date
	Wed Apr  9 12:02:30 2014
$end
$version
	Icarus Verilog
$end
$timescale
	1ps
$end
$scope module processor_tb $end
$scope module CPU $end
$var wire 32 ! ALUSrc_out [31:0] $end
$var wire 2 " ALU_op [1:0] $end
$var wire 32 # ALU_out [31:0] $end
$var wire 4 $ ALUctrl_op [3:0] $end
$var wire 1 % ALUsrc_sel $end
$var wire 1 & MemWrite_sel $end
$var wire 1 ' MemtoReg_sel $end
$var wire 1 ( RegWrite_sel $end
$var wire 1 ) branch_ctl $end
$var wire 1 * branch_sel $end
$var wire 1 + clk $end
$var wire 6 , func_code [5:0] $end
$var wire 16 - imm [15:0] $end
$var wire 32 . immExtended [31:0] $end
$var wire 32 / inPC [31:0] $end
$var wire 32 0 instruction [31:0] $end
$var wire 1 1 jump_sel $end
$var wire 1 2 memRead_sel $end
$var wire 32 3 memory_out [31:0] $end
$var wire 6 4 opcode [5:0] $end
$var wire 32 5 outPC [31:0] $end
$var wire 32 6 outPCadd [31:0] $end
$var wire 32 7 outPCbranch [31:0] $end
$var wire 32 8 outPCjump [31:0] $end
$var wire 32 9 pcTemp [31:0] $end
$var wire 5 : rAddrA [4:0] $end
$var wire 5 ; rAddrB [4:0] $end
$var wire 32 < rDataA [31:0] $end
$var wire 32 = rDataB [31:0] $end
$var wire 1 > regDst_sel $end
$var wire 1 ? rst $end
$var wire 5 @ wAddr [4:0] $end
$var wire 5 A wAddrMux [4:0] $end
$var wire 32 B wData [31:0] $end
$var wire 1 C zero $end
$scope module PC $end
$var wire 1 + clk $end
$var wire 32 D inPC [31:0] $end
$var wire 1 ? rst $end
$var reg 32 E outPC [31:0] $end
$upscope $end
$scope module nextPC $end
$var wire 32 F inA [31:0] $end
$var reg 32 G outA [31:0] $end
$upscope $end
$scope module branchPC $end
$var wire 32 H inPC [31:0] $end
$var wire 32 I instruction [31:0] $end
$var wire 32 J tempExt [31:0] $end
$var reg 32 K branchAddr [31:0] $end
$var reg 16 L temp1 [15:0] $end
$var reg 32 M temp2 [31:0] $end
$scope module bTemp $end
$var wire 16 N extend [15:0] $end
$var reg 32 O extended [31:0] $end
$upscope $end
$upscope $end
$scope module jumpPC $end
$var wire 32 P instruction [31:0] $end
$var reg 32 Q jumpAddr [31:0] $end
$upscope $end
$scope module branchCtl_2mux $end
$var wire 1 * branch_sel $end
$var wire 1 C zero $end
$var reg 1 R branch $end
$upscope $end
$scope module pcMux1 $end
$var wire 32 S inA [31:0] $end
$var wire 32 T inB [31:0] $end
$var wire 1 ) sel $end
$var reg 32 U out [31:0] $end
$upscope $end
$scope module pcMux2 $end
$var wire 32 V inA [31:0] $end
$var wire 32 W inB [31:0] $end
$var wire 1 1 sel $end
$var reg 32 X out [31:0] $end
$upscope $end
$scope module control_logic $end
$var wire 6 Y opcode [5:0] $end
$var reg 2 Z aluop [1:0] $end
$var reg 1 [ alusrc $end
$var reg 1 \ branch $end
$var reg 1 ] jump $end
$var reg 1 ^ memread $end
$var reg 1 _ memtoreg $end
$var reg 1 ` memwrite $end
$var reg 1 a regdest $end
$var reg 1 b regwrite $end
$upscope $end
$scope module writeMux $end
$var wire 5 c inA [4:0] $end
$var wire 5 d inB [4:0] $end
$var wire 1 > sel $end
$var reg 5 e out [4:0] $end
$upscope $end
$scope module immediate $end
$var wire 16 f extend [15:0] $end
$var reg 32 g extended [31:0] $end
$upscope $end
$scope module ALUSrc $end
$var wire 32 h inA [31:0] $end
$var wire 32 i inB [31:0] $end
$var wire 1 % sel $end
$var reg 32 j out [31:0] $end
$upscope $end
$scope module ALUctrl $end
$var wire 2 k aluop [1:0] $end
$var wire 6 l funct [5:0] $end
$var reg 4 m operation [3:0] $end
$upscope $end
$scope module register $end
$var wire 1 + clk $end
$var wire 5 n readReg1 [4:0] $end
$var wire 5 o readReg2 [4:0] $end
$var wire 1 ( regWrite $end
$var wire 1 ? rst $end
$var wire 32 p writeData [31:0] $end
$var wire 5 q writeReg [4:0] $end
$var reg 32 r readData1 [31:0] $end
$var reg 32 s readData2 [31:0] $end
$upscope $end
$scope module ALU_unit $end
$var wire 32 t data_a [31:0] $end
$var wire 32 u data_b [31:0] $end
$var wire 4 v operation [3:0] $end
$var wire 1 C zero $end
$var reg 32 w aluresult [31:0] $end
$upscope $end
$scope module memory_unit $end
$var wire 32 x data_addr [32:1] $end
$var wire 32 y data_in [31:0] $end
$var wire 32 z data_out [31:0] $end
$var wire 32 { inst_addr [32:1] $end
$var wire 32 | instr [31:0] $end
$var wire 1 2 mem_read $end
$var wire 1 & mem_write $end
$var reg 32 } data_addr_reg [31:0] $end
$var integer 32 ~ file [31:0] $end
$var integer 32 !" i [31:0] $end
$var reg 32 "" inst_addr_reg [31:0] $end
$var integer 32 #" r [31:0] $end
$var reg 96 $" rest [95:0] $end
$scope begin file_block $end
$upscope $end
$upscope $end
$scope module memtoReg_mux $end
$var wire 32 %" inA [31:0] $end
$var wire 32 &" inB [31:0] $end
$var wire 1 ' sel $end
$var reg 32 '" out [31:0] $end
$upscope $end
$upscope $end
$upscope $end
$enddefinitions $end
#0
$dumpvars
b0 '"
b0 &"
b0 %"
b101010 $"
b10000 #"
b1000010000000 ""
b1001 !"
b10000000000000000000000000000011 ~
b1010000 }
b100000000110000000000000000000 |
b1000000000000 {
b0 z
b0 y
b0 x
b0 w
b10 v
b0 u
b0 t
b0 s
b0 r
b11000 q
b0 p
b11000 o
b0 n
b10 m
b0 l
b0 k
b0 j
b0 i
b0 h
b0 g
b0 f
b11000 e
b0 d
b11000 c
1b
0a
0`
0_
0^
0]
0\
1[
b0 Z
b1000 Y
b1000000000100 X
b11000000000000000000000 W
b1000000000100 V
b1000000000100 U
b1000000000100 T
b1000000000100 S
0R
b11000000000000000000000 Q
b100000000110000000000000000000 P
b0 O
b0 N
b0 M
b0 L
b1000000000100 K
b0 J
b100000000110000000000000000000 I
b1000000000100 H
b1000000000100 G
b1000000000000 F
b1000000000000 E
b1000000000100 D
1C
b0 B
b11000 A
b0 @
1?
0>
b0 =
b0 <
b11000 ;
b0 :
b1000000000100 9
b11000000000000000000000 8
b1000000000100 7
b1000000000100 6
b1000000000000 5
b1000 4
b0 3
02
01
b100000000110000000000000000000 0
b1000000000100 /
b0 .
b0 -
b0 ,
0+
0*
0)
1(
0'
0&
1%
b10 $
b0 #
b0 "
b0 !
$end
#10000
b100100 '"
b100100 B
b100100 p
b100100 w
0C
b100100 #
b100100 x
b100100 %"
b10010000 M
b1000000001000 X
b1000000001000 /
b1000000001000 D
b100100 j
b100100 !
b100100 u
b100100 O
b100100 J
b1000000001000 U
b1000000001000 9
b1000000001000 V
b1000010011000 K
b1000010011000 7
b1000010011000 T
b11001 e
b11001 A
b11001 q
b100100 g
b100100 .
b100100 i
b11001000000000010010000 Q
b11001000000000010010000 8
b11001000000000010010000 W
b100100 L
b100100 N
b1000000001000 G
b1000000001000 6
b1000000001000 H
b1000000001000 S
b11001 ;
b11001 c
b11001 o
b100100 ,
b100100 l
b100100 -
b100100 f
b1000000000100 E
b100000000110010000000000100100 0
b100000000110010000000000100100 I
b100000000110010000000000100100 P
b100000000110010000000000100100 |
b1000000000100 5
b1000000000100 F
b1000000000100 {
1+
0?
#20000
0+
#30000
b0 w
1C
b0 #
b0 x
b0 %"
b0 M
b1000000001100 X
b1000000001100 /
b1000000001100 D
b1 '"
b1 B
b1 p
b0 j
b0 !
b0 u
b0 O
b0 J
b1000000001100 U
b1000000001100 9
b1000000001100 V
b1000000001100 K
b1000000001100 7
b1000000001100 T
b1 3
b1 z
b1 &"
1^
12
1_
1'
1[
1%
1b
1(
b10 e
b10 A
b10 q
b0 g
b0 .
b0 i
b1100000010000000000000000000 Q
b1100000010000000000000000000 8
b1100000010000000000000000000 W
b0 L
b0 N
b1000000001100 G
b1000000001100 6
b1000000001100 H
b1000000001100 S
b11000 :
b11000 n
b100011 4
b100011 Y
b10 ;
b10 c
b10 o
b0 ,
b0 l
b0 -
b0 f
b1000000001000 E
b10001111000000100000000000000000 0
b10001111000000100000000000000000 I
b10001111000000100000000000000000 P
b10001111000000100000000000000000 |
b1000000001000 5
b1000000001000 F
b1000000001000 {
1+
#40000
0+
#50000
b10 '"
b10 B
b10 p
b10 3
b10 z
b10 &"
b100100 w
0C
b100100 #
b100100 x
b100100 %"
b10010000 M
b1000000010000 X
b1000000010000 /
b1000000010000 D
b100100 j
b100100 !
b100100 u
b100100 O
b100100 J
b1000000010000 U
b1000000010000 9
b1000000010000 V
b1000010100000 K
b1000010100000 7
b1000010100000 T
b11 e
b11 A
b11 q
b100100 g
b100100 .
b100100 i
b1100000011000000000010010000 Q
b1100000011000000000010010000 8
b1100000011000000000010010000 W
b100100 L
b100100 N
b1000000010000 G
b1000000010000 6
b1000000010000 H
b1000000010000 S
b11 ;
b11 c
b11 o
b100100 ,
b100100 l
b100100 -
b100100 f
b1000000001100 E
b10001111000000110000000000100100 0
b10001111000000110000000000100100 I
b10001111000000110000000000100100 P
b10001111000000110000000000100100 |
b1000000001100 5
b1000000001100 F
b1000000001100 {
1+
#60000
0+
#70000
b10000000010000000 M
b1000000010100 X
b1000000010100 /
b1000000010100 D
b1000 e
b1000 A
b1000 q
b11 '"
b11 B
b11 p
b11 w
b11 #
b11 x
b11 %"
b10 j
b10 !
b10 u
b100000000100000 O
b100000000100000 J
b1000000010100 U
b1000000010100 9
b1000000010100 V
b10001000010010100 K
b10001000010010100 7
b10001000010010100 T
b0 3
b0 z
b0 &"
b10 Z
b10 "
b10 k
1a
1>
0[
0%
0_
0'
1b
1(
0^
02
b10 s
b10 =
b10 h
b10 y
b1 r
b1 <
b1 t
b100000000100000 g
b100000000100000 .
b100000000100000 i
b1000011010000000010000000 Q
b1000011010000000010000000 8
b1000011010000000010000000 W
b100000000100000 L
b100000000100000 N
b1000000010100 G
b1000000010100 6
b1000000010100 H
b1000000010100 S
b0 4
b0 Y
b10 :
b10 n
b1000 @
b1000 d
b100000 ,
b100000 l
b100000000100000 -
b100000000100000 f
b1000000010000 E
b10000110100000000100000 0
b10000110100000000100000 I
b10000110100000000100000 P
b10000110100000000100000 |
b1000000010000 5
b1000000010000 F
b1000000010000 {
1+
#80000
0+
#90000
b1001000 '"
b1001000 B
b1001000 p
b100100000 M
b1000000011000 X
b1000000011000 /
b1000000011000 D
b1001000 w
b1001000 #
b1001000 x
b1001000 %"
b1001000 j
b1001000 !
b1001000 u
b1001000 O
b1001000 J
b1000000011000 U
b1000000011000 9
b1000000011000 V
b1000100111000 K
b1000100111000 7
b1000100111000 T
1`
1&
1[
1%
0a
0>
0b
0(
b0 Z
b0 "
b0 k
b11 s
b11 =
b11 h
b11 y
b0 r
b0 <
b0 t
b1000 e
b1000 A
b1000 q
b1001000 g
b1001000 .
b1001000 i
b1100001000000000000100100000 Q
b1100001000000000000100100000 8
b1100001000000000000100100000 W
b1001000 L
b1001000 N
b1000000011000 G
b1000000011000 6
b1000000011000 H
b1000000011000 S
b101011 4
b101011 Y
b1000 ;
b1000 c
b1000 o
b11000 :
b11000 n
b0 @
b0 d
b1000 ,
b1000 l
b1001000 -
b1001000 f
b1000000010100 E
b10101111000010000000000001001000 0
b10101111000010000000000001001000 I
b10101111000010000000000001001000 P
b10101111000010000000000001001000 |
b1000000010100 5
b1000000010100 F
b1000000010100 {
1+
#100000
0+
#110000
b100 '"
b100 B
b100 p
b100 w
b100 #
b100 x
b100 %"
b10000 M
b1000000011100 X
b1000000011100 /
b1000000011100 D
b100 j
b100 !
b100 u
b100 O
b100 J
b1000000011100 U
b1000000011100 9
b1000000011100 V
b1000000101100 K
b1000000101100 7
b1000000101100 T
1b
1(
1[
1%
0`
0&
b0 s
b0 =
b0 h
b0 y
b11000 e
b11000 A
b11000 q
b100 g
b100 .
b100 i
b1100011000000000000000010000 Q
b1100011000000000000000010000 8
b1100011000000000000000010000 W
b100 L
b100 N
b1000000011100 G
b1000000011100 6
b1000000011100 H
b1000000011100 S
b1000 4
b1000 Y
b11000 ;
b11000 c
b11000 o
b100 ,
b100 l
b100 -
b100 f
b1000000011000 E
b100011000110000000000000000100 0
b100011000110000000000000000100 I
b100011000110000000000000000100 P
b100011000110000000000000000100 |
b1000000011000 5
b1000000011000 F
b1000000011000 {
1+
#120000
0+
#130000
b0 '"
b0 B
b0 p
b0 w
1C
b0 #
b0 x
b0 %"
b11110000010000000 M
b1000000100000 X
b1000000100000 /
b1000000100000 D
b0 j
b0 !
b0 u
b111100000100000 O
b111100000100000 J
b1000000100000 U
b1000000100000 9
b1000000100000 V
b11111000010100000 K
b11111000010100000 7
b11111000010100000 T
b10 Z
b10 "
b10 k
1a
1>
0[
0%
1b
1(
b1111 e
b1111 A
b1111 q
b111100000100000 g
b111100000100000 .
b111100000100000 i
b11110000010000000 Q
b11110000010000000 8
b11110000010000000 W
b111100000100000 L
b111100000100000 N
b1000000100000 G
b1000000100000 6
b1000000100000 H
b1000000100000 S
b0 :
b0 n
b0 4
b0 Y
b0 ;
b0 c
b0 o
b1111 @
b1111 d
b100000 ,
b100000 l
b111100000100000 -
b111100000100000 f
b1000000011100 E
b111100000100000 0
b111100000100000 I
b111100000100000 P
b111100000100000 |
b1000000011100 5
b1000000011100 F
b1000000011100 {
1+
#140000
0+
#150000
b1000000100100 X
b1000000100100 /
b1000000100100 D
b1000000100100 U
b1000000100100 9
b1000000100100 V
b11111000010100100 K
b11111000010100100 7
b11111000010100100 T
b1000000100100 G
b1000000100100 6
b1000000100100 H
b1000000100100 S
b1000000100000 E
b1000000100000 5
b1000000100000 F
b1000000100000 {
1+
#160000
0+
#170000
b100000 '"
b100000 B
b100000 p
b100 M
b1000000101000 X
b1000000101000 /
b1000000101000 D
0R
0)
b110 m
b110 $
b110 v
b100000 w
0C
b100000 #
b100000 x
b100000 %"
b100 j
b100 !
b100 u
b1 O
b1 J
b1000000101000 U
b1000000101000 9
b1000000101000 V
b1000000101100 K
b1000000101100 7
b1000000101100 T
1\
1*
0a
0>
0b
0(
b1 Z
b1 "
b1 k
b100 s
b100 =
b100 h
b100 y
b100100 r
b100100 <
b100100 t
b11000 e
b11000 A
b11000 q
b1 g
b1 .
b1 i
b1100111000000000000000000100 Q
b1100111000000000000000000100 8
b1100111000000000000000000100 W
b1 L
b1 N
b1000000101000 G
b1000000101000 6
b1000000101000 H
b1000000101000 S
b100 4
b100 Y
b11000 ;
b11000 c
b11000 o
b11001 :
b11001 n
b0 @
b0 d
b1 ,
b1 l
b1 -
b1 f
b1000000100100 E
b10011001110000000000000000001 0
b10011001110000000000000000001 I
b10011001110000000000000000001 P
b10011001110000000000000000001 |
b1000000100100 5
b1000000100100 F
b1000000100100 {
1+
#180000
0+
#190000
b0 '"
b0 B
b0 p
1C
b1000000001000 M
b10 m
b10 $
b10 v
b0 w
b0 #
b0 x
b0 %"
b0 j
b0 !
b0 u
b1000000001000 X
b1000000001000 /
b1000000001000 D
b10000000010 O
b10000000010 J
b1000000101100 U
b1000000101100 9
b1000000101100 V
b10000000110100 K
b10000000110100 7
b10000000110100 T
1]
11
0\
0*
b0 Z
b0 "
b0 k
b0 e
b0 A
b0 q
b0 s
b0 =
b0 h
b0 y
b0 r
b0 <
b0 t
b10000000010 g
b10000000010 .
b10000000010 i
b1000000001000 Q
b1000000001000 8
b1000000001000 W
b10000000010 L
b10000000010 N
b1000000101100 G
b1000000101100 6
b1000000101100 H
b1000000101100 S
b10 4
b10 Y
b0 ;
b0 c
b0 o
b0 :
b0 n
b10 ,
b10 l
b10000000010 -
b10000000010 f
b1000000101000 E
b1000000000000000010000000010 0
b1000000000000000010000000010 I
b1000000000000000010000000010 P
b1000000000000000010000000010 |
b1000000101000 5
b1000000101000 F
b1000000101000 {
1+
#200000
0+
#210000
b0 M
b0 '"
b0 B
b0 p
b100 w
0C
b100 #
b100 x
b100 %"
b1000000001100 X
b1000000001100 /
b1000000001100 D
b0 O
b0 J
b1000000001100 U
b1000000001100 9
b1000000001100 V
b1000000001100 K
b1000000001100 7
b1000000001100 T
b0 3
b0 z
b0 &"
1^
12
1b
1(
1_
1'
1[
1%
0]
01
b1 s
b1 =
b1 h
b1 y
b100 r
b100 <
b100 t
b10 e
b10 A
b10 q
b0 g
b0 .
b0 i
b1100000010000000000000000000 Q
b1100000010000000000000000000 8
b1100000010000000000000000000 W
b0 L
b0 N
b1000000001100 G
b1000000001100 6
b1000000001100 H
b1000000001100 S
b11000 :
b11000 n
b100011 4
b100011 Y
b10 ;
b10 c
b10 o
b0 ,
b0 l
b0 -
b0 f
b1000000001000 E
b10001111000000100000000000000000 0
b10001111000000100000000000000000 I
b10001111000000100000000000000000 P
b10001111000000100000000000000000 |
b1000000001000 5
b1000000001000 F
b1000000001000 {
1+
#220000
0+
#230000
b100 '"
b100 B
b100 p
b100 3
b100 z
b100 &"
b101000 w
b101000 #
b101000 x
b101000 %"
b10010000 M
b1000000010000 X
b1000000010000 /
b1000000010000 D
b100100 j
b100100 !
b100100 u
b100100 O
b100100 J
b1000000010000 U
b1000000010000 9
b1000000010000 V
b1000010100000 K
b1000010100000 7
b1000010100000 T
b10 s
b10 =
b10 h
b10 y
b11 e
b11 A
b11 q
b100100 g
b100100 .
b100100 i
b1100000011000000000010010000 Q
b1100000011000000000010010000 8
b1100000011000000000010010000 W
b100100 L
b100100 N
b1000000010000 G
b1000000010000 6
b1000000010000 H
b1000000010000 S
b11 ;
b11 c
b11 o
b100100 ,
b100100 l
b100100 -
b100100 f
b1000000001100 E
b10001111000000110000000000100100 0
b10001111000000110000000000100100 I
b10001111000000110000000000100100 P
b10001111000000110000000000100100 |
b1000000001100 5
b1000000001100 F
b1000000001100 {
1+
#240000
0+
#250000
b10000000010000000 M
b1000000010100 X
b1000000010100 /
b1000000010100 D
b1000 e
b1000 A
b1000 q
b100 '"
b100 B
b100 p
b100 w
b100 #
b100 x
b100 %"
b100 j
b100 !
b100 u
b100000000100000 O
b100000000100000 J
b1000000010100 U
b1000000010100 9
b1000000010100 V
b10001000010010100 K
b10001000010010100 7
b10001000010010100 T
b0 3
b0 z
b0 &"
b10 Z
b10 "
b10 k
1a
1>
0[
0%
0_
0'
1b
1(
0^
02
b100 s
b100 =
b100 h
b100 y
b0 r
b0 <
b0 t
b100000000100000 g
b100000000100000 .
b100000000100000 i
b1000011010000000010000000 Q
b1000011010000000010000000 8
b1000011010000000010000000 W
b100000000100000 L
b100000000100000 N
b1000000010100 G
b1000000010100 6
b1000000010100 H
b1000000010100 S
b0 4
b0 Y
b10 :
b10 n
b1000 @
b1000 d
b100000 ,
b100000 l
b100000000100000 -
b100000000100000 f
b1000000010000 E
b10000110100000000100000 0
b10000110100000000100000 I
b10000110100000000100000 P
b10000110100000000100000 |
b1000000010000 5
b1000000010000 F
b1000000010000 {
1+
#260000
0+
#270000
b1001100 '"
b1001100 B
b1001100 p
b100100000 M
b1000000011000 X
b1000000011000 /
b1000000011000 D
b1001100 w
b1001100 #
b1001100 x
b1001100 %"
b1001000 j
b1001000 !
b1001000 u
b1001000 O
b1001000 J
b1000000011000 U
b1000000011000 9
b1000000011000 V
b1000100111000 K
b1000100111000 7
b1000100111000 T
1`
1&
1[
1%
0a
0>
0b
0(
b0 Z
b0 "
b0 k
b100 r
b100 <
b100 t
b1000 e
b1000 A
b1000 q
b1001000 g
b1001000 .
b1001000 i
b1100001000000000000100100000 Q
b1100001000000000000100100000 8
b1100001000000000000100100000 W
b1001000 L
b1001000 N
b1000000011000 G
b1000000011000 6
b1000000011000 H
b1000000011000 S
b101011 4
b101011 Y
b1000 ;
b1000 c
b1000 o
b11000 :
b11000 n
b0 @
b0 d
b1000 ,
b1000 l
b1001000 -
b1001000 f
b1000000010100 E
b10101111000010000000000001001000 0
b10101111000010000000000001001000 I
b10101111000010000000000001001000 P
b10101111000010000000000001001000 |
b1000000010100 5
b1000000010100 F
b1000000010100 {
1+
#280000
0+
#290000
b1000 '"
b1000 B
b1000 p
b1000 w
b1000 #
b1000 x
b1000 %"
b10000 M
b1000000011100 X
b1000000011100 /
b1000000011100 D
b100 j
b100 !
b100 u
b100 O
b100 J
b1000000011100 U
b1000000011100 9
b1000000011100 V
b1000000101100 K
b1000000101100 7
b1000000101100 T
1b
1(
1[
1%
0`
0&
b11000 e
b11000 A
b11000 q
b100 g
b100 .
b100 i
b1100011000000000000000010000 Q
b1100011000000000000000010000 8
b1100011000000000000000010000 W
b100 L
b100 N
b1000000011100 G
b1000000011100 6
b1000000011100 H
b1000000011100 S
b1000 4
b1000 Y
b11000 ;
b11000 c
b11000 o
b100 ,
b100 l
b100 -
b100 f
b1000000011000 E
b100011000110000000000000000100 0
b100011000110000000000000000100 I
b100011000110000000000000000100 P
b100011000110000000000000000100 |
b1000000011000 5
b1000000011000 F
b1000000011000 {
1+
#300000
0+
#310000
b0 '"
b0 B
b0 p
1C
b11110000010000000 M
b1000000100000 X
b1000000100000 /
b1000000100000 D
b0 w
b0 #
b0 x
b0 %"
b0 j
b0 !
b0 u
b111100000100000 O
b111100000100000 J
b1000000100000 U
b1000000100000 9
b1000000100000 V
b11111000010100000 K
b11111000010100000 7
b11111000010100000 T
b10 Z
b10 "
b10 k
1a
1>
0[
0%
1b
1(
b0 s
b0 =
b0 h
b0 y
b0 r
b0 <
b0 t
b1111 e
b1111 A
b1111 q
b111100000100000 g
b111100000100000 .
b111100000100000 i
b11110000010000000 Q
b11110000010000000 8
b11110000010000000 W
b111100000100000 L
b111100000100000 N
b1000000100000 G
b1000000100000 6
b1000000100000 H
b1000000100000 S
b0 :
b0 n
b0 4
b0 Y
b0 ;
b0 c
b0 o
b1111 @
b1111 d
b100000 ,
b100000 l
b111100000100000 -
b111100000100000 f
b1000000011100 E
b111100000100000 0
b111100000100000 I
b111100000100000 P
b111100000100000 |
b1000000011100 5
b1000000011100 F
b1000000011100 {
1+
#320000
0+
#330000
b1000000100100 X
b1000000100100 /
b1000000100100 D
b1000000100100 U
b1000000100100 9
b1000000100100 V
b11111000010100100 K
b11111000010100100 7
b11111000010100100 T
b1000000100100 G
b1000000100100 6
b1000000100100 H
b1000000100100 S
b1000000100000 E
b1000000100000 5
b1000000100000 F
b1000000100000 {
1+
#340000
0+
#350000
b11100 '"
b11100 B
b11100 p
b100 M
b1000000101000 X
b1000000101000 /
b1000000101000 D
0R
0)
b110 m
b110 $
b110 v
b11100 w
0C
b11100 #
b11100 x
b11100 %"
b1000 j
b1000 !
b1000 u
b1 O
b1 J
b1000000101000 U
b1000000101000 9
b1000000101000 V
b1000000101100 K
b1000000101100 7
b1000000101100 T
1\
1*
0a
0>
0b
0(
b1 Z
b1 "
b1 k
b1000 s
b1000 =
b1000 h
b1000 y
b100100 r
b100100 <
b100100 t
b11000 e
b11000 A
b11000 q
b1 g
b1 .
b1 i
b1100111000000000000000000100 Q
b1100111000000000000000000100 8
b1100111000000000000000000100 W
b1 L
b1 N
b1000000101000 G
b1000000101000 6
b1000000101000 H
b1000000101000 S
b100 4
b100 Y
b11000 ;
b11000 c
b11000 o
b11001 :
b11001 n
b0 @
b0 d
b1 ,
b1 l
b1 -
b1 f
b1000000100100 E
b10011001110000000000000000001 0
b10011001110000000000000000001 I
b10011001110000000000000000001 P
b10011001110000000000000000001 |
b1000000100100 5
b1000000100100 F
b1000000100100 {
1+
#360000
0+
#370000
b0 '"
b0 B
b0 p
1C
b1000000001000 M
b10 m
b10 $
b10 v
b0 w
b0 #
b0 x
b0 %"
b0 j
b0 !
b0 u
b1000000001000 X
b1000000001000 /
b1000000001000 D
b10000000010 O
b10000000010 J
b1000000101100 U
b1000000101100 9
b1000000101100 V
b10000000110100 K
b10000000110100 7
b10000000110100 T
1]
11
0\
0*
b0 Z
b0 "
b0 k
b0 e
b0 A
b0 q
b0 s
b0 =
b0 h
b0 y
b0 r
b0 <
b0 t
b10000000010 g
b10000000010 .
b10000000010 i
b1000000001000 Q
b1000000001000 8
b1000000001000 W
b10000000010 L
b10000000010 N
b1000000101100 G
b1000000101100 6
b1000000101100 H
b1000000101100 S
b10 4
b10 Y
b0 ;
b0 c
b0 o
b0 :
b0 n
b10 ,
b10 l
b10000000010 -
b10000000010 f
b1000000101000 E
b1000000000000000010000000010 0
b1000000000000000010000000010 I
b1000000000000000010000000010 P
b1000000000000000010000000010 |
b1000000101000 5
b1000000101000 F
b1000000101000 {
1+
#380000
0+
#390000
b0 M
b11 '"
b11 B
b11 p
b1000 w
0C
b1000 #
b1000 x
b1000 %"
b1000000001100 X
b1000000001100 /
b1000000001100 D
b0 O
b0 J
b1000000001100 U
b1000000001100 9
b1000000001100 V
b1000000001100 K
b1000000001100 7
b1000000001100 T
b11 3
b11 z
b11 &"
1^
12
1b
1(
1_
1'
1[
1%
0]
01
b1000 r
b1000 <
b1000 t
b10 e
b10 A
b10 q
b0 g
b0 .
b0 i
b1100000010000000000000000000 Q
b1100000010000000000000000000 8
b1100000010000000000000000000 W
b0 L
b0 N
b1000000001100 G
b1000000001100 6
b1000000001100 H
b1000000001100 S
b11000 :
b11000 n
b100011 4
b100011 Y
b10 ;
b10 c
b10 o
b0 ,
b0 l
b0 -
b0 f
b1000000001000 E
b10001111000000100000000000000000 0
b10001111000000100000000000000000 I
b10001111000000100000000000000000 P
b10001111000000100000000000000000 |
b1000000001000 5
b1000000001000 F
b1000000001000 {
1+
#400000
0+
#410000
b110 '"
b110 B
b110 p
b110 3
b110 z
b110 &"
b101100 w
b101100 #
b101100 x
b101100 %"
b10010000 M
b1000000010000 X
b1000000010000 /
b1000000010000 D
b100100 j
b100100 !
b100100 u
b100100 O
b100100 J
b1000000010000 U
b1000000010000 9
b1000000010000 V
b1000010100000 K
b1000010100000 7
b1000010100000 T
b100 s
b100 =
b100 h
b100 y
b11 e
b11 A
b11 q
b100100 g
b100100 .
b100100 i
b1100000011000000000010010000 Q
b1100000011000000000010010000 8
b1100000011000000000010010000 W
b100100 L
b100100 N
b1000000010000 G
b1000000010000 6
b1000000010000 H
b1000000010000 S
b11 ;
b11 c
b11 o
b100100 ,
b100100 l
b100100 -
b100100 f
b1000000001100 E
b10001111000000110000000000100100 0
b10001111000000110000000000100100 I
b10001111000000110000000000100100 P
b10001111000000110000000000100100 |
b1000000001100 5
b1000000001100 F
b1000000001100 {
1+
#420000
0+
#430000
b10000000010000000 M
b1000000010100 X
b1000000010100 /
b1000000010100 D
b1000 e
b1000 A
b1000 q
b1001 '"
b1001 B
b1001 p
b1001 w
b1001 #
b1001 x
b1001 %"
b110 j
b110 !
b110 u
b100000000100000 O
b100000000100000 J
b1000000010100 U
b1000000010100 9
b1000000010100 V
b10001000010010100 K
b10001000010010100 7
b10001000010010100 T
b0 3
b0 z
b0 &"
b10 Z
b10 "
b10 k
1a
1>
0[
0%
0_
0'
1b
1(
0^
02
b110 s
b110 =
b110 h
b110 y
b11 r
b11 <
b11 t
b100000000100000 g
b100000000100000 .
b100000000100000 i
b1000011010000000010000000 Q
b1000011010000000010000000 8
b1000011010000000010000000 W
b100000000100000 L
b100000000100000 N
b1000000010100 G
b1000000010100 6
b1000000010100 H
b1000000010100 S
b0 4
b0 Y
b10 :
b10 n
b1000 @
b1000 d
b100000 ,
b100000 l
b100000000100000 -
b100000000100000 f
b1000000010000 E
b10000110100000000100000 0
b10000110100000000100000 I
b10000110100000000100000 P
b10000110100000000100000 |
b1000000010000 5
b1000000010000 F
b1000000010000 {
1+
#440000
0+
#450000
b1010000 '"
b1010000 B
b1010000 p
b100100000 M
b1000000011000 X
b1000000011000 /
b1000000011000 D
b1010000 w
b1010000 #
b1010000 x
b1010000 %"
b1001000 j
b1001000 !
b1001000 u
b1001000 O
b1001000 J
b1000000011000 U
b1000000011000 9
b1000000011000 V
b1000100111000 K
b1000100111000 7
b1000100111000 T
1`
1&
1[
1%
0a
0>
0b
0(
b0 Z
b0 "
b0 k
b1001 s
b1001 =
b1001 h
b1001 y
b1000 r
b1000 <
b1000 t
b1000 e
b1000 A
b1000 q
b1001000 g
b1001000 .
b1001000 i
b1100001000000000000100100000 Q
b1100001000000000000100100000 8
b1100001000000000000100100000 W
b1001000 L
b1001000 N
b1000000011000 G
b1000000011000 6
b1000000011000 H
b1000000011000 S
b101011 4
b101011 Y
b1000 ;
b1000 c
b1000 o
b11000 :
b11000 n
b0 @
b0 d
b1000 ,
b1000 l
b1001000 -
b1001000 f
b1000000010100 E
b10101111000010000000000001001000 0
b10101111000010000000000001001000 I
b10101111000010000000000001001000 P
b10101111000010000000000001001000 |
b1000000010100 5
b1000000010100 F
b1000000010100 {
1+
#460000
0+
#470000
b1100 '"
b1100 B
b1100 p
b1100 w
b1100 #
b1100 x
b1100 %"
b10000 M
b1000000011100 X
b1000000011100 /
b1000000011100 D
b100 j
b100 !
b100 u
b100 O
b100 J
b1000000011100 U
b1000000011100 9
b1000000011100 V
b1000000101100 K
b1000000101100 7
b1000000101100 T
1b
1(
1[
1%
0`
0&
b1000 s
b1000 =
b1000 h
b1000 y
b11000 e
b11000 A
b11000 q
b100 g
b100 .
b100 i
b1100011000000000000000010000 Q
b1100011000000000000000010000 8
b1100011000000000000000010000 W
b100 L
b100 N
b1000000011100 G
b1000000011100 6
b1000000011100 H
b1000000011100 S
b1000 4
b1000 Y
b11000 ;
b11000 c
b11000 o
b100 ,
b100 l
b100 -
b100 f
b1000000011000 E
b100011000110000000000000000100 0
b100011000110000000000000000100 I
b100011000110000000000000000100 P
b100011000110000000000000000100 |
b1000000011000 5
b1000000011000 F
b1000000011000 {
1+
#480000
0+
